Esp5/5_Esperienza/1-Oscillatore a rilassamento/rilass_15k.csv

X,CH1,CH2,Start,Increment,
Sequence,Volt,Volt,-3.500000e-03,5.000000e-06,
0,-1.279800e+01,-5.460000e+00,
1,-1.232400e+01,-5.928000e+00,
2,-1.279800e+01,-5.460000e+00,
3,-1.232400e+01,-5.928000e+00,
4,-1.279800e+01,-5.460000e+00,
5,-1.232400e+01,-5.928000e+00,
6,-1.279800e+01,-5.928000e+00,
7,-1.232400e+01,-5.460000e+00,
8,-1.279800e+01,-5.616000e+00,
9,-1.232400e+01,-6.084000e+00,
10,-1.279800e+01,-5.616000e+00,
11,-1.232400e+01,-6.084000e+00,
12,-1.279800e+01,-5.616000e+00,
13,-1.232400e+01,-6.240000e+00,
14,-1.279800e+01,-5.772000e+00,
15,-1.232400e+01,-6.240000e+00,
16,-1.279800e+01,-5.772000e+00,
17,-1.232400e+01,-6.240000e+00,
18,-1.279800e+01,-5.772000e+00,
19,-1.232400e+01,-6.240000e+00,
20,-1.279800e+01,-5.772000e+00,
21,-1.232400e+01,-6.396000e+00,
22,-1.279800e+01,-5.928000e+00,
23,-1.248200e+01,-6.396000e+00,
24,-1.279800e+01,-5.928000e+00,
25,-1.232400e+01,-6.396000e+00,
26,-1.279800e+01,-6.396000e+00,
27,-1.248200e+01,-5.928000e+00,
28,-1.279800e+01,-5.928000e+00,
29,-1.232400e+01,-6.552000e+00,
30,-1.279800e+01,-6.084000e+00,
31,-1.232400e+01,-6.552000e+00,
32,-1.279800e+01,-6.552000e+00,
33,-1.232400e+01,-6.084000e+00,
34,-1.279800e+01,-6.552000e+00,
35,-9.954000e+00,-6.240000e+00,
36,-1.011200e+01,-6.240000e+00,
37,-2.528000e+00,-6.708000e+00,
38,-2.844000e+00,-6.708000e+00,
39,4.898000e+00,-6.084000e+00,
40,4.740000e+00,-6.552000e+00,
41,1.279800e+01,-6.084000e+00,
42,1.248200e+01,-6.552000e+00,
43,1.453600e+01,-5.928000e+00,
44,1.422000e+01,-6.396000e+00,
45,1.453600e+01,-5.772000e+00,
46,1.422000e+01,-6.240000e+00,
47,1.453600e+01,-5.616000e+00,
48,1.422000e+01,-6.084000e+00,
49,1.453600e+01,-5.460000e+00,
50,1.453600e+01,-5.928000e+00,
51,1.422000e+01,-5.304000e+00,
52,1.406200e+01,-5.772000e+00,
53,1.453600e+01,-5.148000e+00,
54,1.422000e+01,-5.616000e+00,
55,1.453600e+01,-5.148000e+00,
56,1.422000e+01,-5.460000e+00,
57,1.453600e+01,-4.992000e+00,
58,1.422000e+01,-5.304000e+00,
59,1.453600e+01,-4.836000e+00,
60,1.453600e+01,-5.148000e+00,
61,1.406200e+01,-4.680000e+00,
62,1.422000e+01,-5.148000e+00,
63,1.453600e+01,-4.524000e+00,
64,1.422000e+01,-4.992000e+00,
65,1.453600e+01,-4.368000e+00,
66,1.422000e+01,-4.836000e+00,
67,1.453600e+01,-4.368000e+00,
68,1.422000e+01,-4.680000e+00,
69,1.453600e+01,-4.212000e+00,
70,1.422000e+01,-4.524000e+00,
71,1.453600e+01,-4.056000e+00,
72,1.422000e+01,-4.368000e+00,
73,1.453600e+01,-3.900000e+00,
74,1.422000e+01,-4.368000e+00,
75,1.453600e+01,-3.744000e+00,
76,1.422000e+01,-3.744000e+00,
77,1.453600e+01,-4.212000e+00,
78,1.422000e+01,-4.056000e+00,
79,1.453600e+01,-3.588000e+00,
80,1.422000e+01,-3.900000e+00,
81,1.453600e+01,-3.432000e+00,
82,1.453600e+01,-3.744000e+00,
83,1.406200e+01,-3.276000e+00,
84,1.422000e+01,-3.744000e+00,
85,1.453600e+01,-3.120000e+00,
86,1.453600e+01,-3.120000e+00,
87,1.406200e+01,-3.588000e+00,
88,1.422000e+01,-3.432000e+00,
89,1.453600e+01,-2.964000e+00,
90,1.453600e+01,-3.276000e+00,
91,1.406200e+01,-2.808000e+00,
92,1.422000e+01,-3.120000e+00,
93,1.453600e+01,-2.652000e+00,
94,1.422000e+01,-3.120000e+00,
95,1.453600e+01,-2.652000e+00,
96,1.453600e+01,-2.964000e+00,
97,1.406200e+01,-2.496000e+00,
98,1.453600e+01,-2.808000e+00,
99,1.406200e+01,-2.340000e+00,
100,1.422000e+01,-2.652000e+00,
101,1.453600e+01,-2.184000e+00,
102,1.453600e+01,-2.652000e+00,
103,1.406200e+01,-2.184000e+00,
104,1.422000e+01,-2.496000e+00,
105,1.453600e+01,-2.028000e+00,
106,1.453600e+01,-2.340000e+00,
107,1.406200e+01,-1.872000e+00,
108,1.422000e+01,-1.872000e+00,
109,1.453600e+01,-2.340000e+00,
110,1.453600e+01,-2.184000e+00,
111,1.406200e+01,-1.716000e+00,
112,1.422000e+01,-2.028000e+00,
113,1.453600e+01,-1.560000e+00,
114,1.422000e+01,-2.028000e+00,
115,1.453600e+01,-1.404000e+00,
116,1.422000e+01,-1.872000e+00,
117,1.453600e+01,-1.404000e+00,
118,1.422000e+01,-1.716000e+00,
119,1.453600e+01,-1.248000e+00,
120,1.422000e+01,-1.560000e+00,
121,1.453600e+01,-1.092000e+00,
122,1.422000e+01,-1.560000e+00,
123,1.453600e+01,-1.092000e+00,
124,1.422000e+01,-1.404000e+00,
125,1.453600e+01,-9.360000e-01,
126,1.422000e+01,-1.248000e+00,
127,1.453600e+01,-7.800000e-01,
128,1.422000e+01,-1.092000e+00,
129,1.453600e+01,-7.800000e-01,
130,1.422000e+01,-1.092000e+00,
131,1.453600e+01,-6.240000e-01,
132,1.422000e+01,-9.360000e-01,
133,1.453600e+01,-4.680000e-01,
134,1.422000e+01,-4.680000e-01,
135,1.453600e+01,-9.360000e-01,
136,1.453600e+01,-7.800000e-01,
137,1.406200e+01,-3.120000e-01,
138,1.453600e+01,-6.240000e-01,
139,1.406200e+01,-1.560000e-01,
140,1.422000e+01,-6.240000e-01,
141,1.453600e+01,-1.560000e-01,
142,1.422000e+01,-4.680000e-01,
143,1.453600e+01,0.000000e+00,
144,1.422000e+01,-3.120000e-01,
145,1.453600e+01,1.560000e-01,
146,1.453600e+01,-3.120000e-01,
147,1.406200e+01,1.560000e-01,
148,1.422000e+01,-1.560000e-01,
149,1.453600e+01,3.120000e-01,
150,1.422000e+01,0.000000e+00,
151,1.453600e+01,4.680000e-01,
152,1.422000e+01,0.000000e+00,
153,1.453600e+01,4.680000e-01,
154,1.453600e+01,1.560000e-01,
155,1.406200e+01,6.240000e-01,
156,1.453600e+01,6.240000e-01,
157,1.406200e+01,1.560000e-01,
158,1.422000e+01,3.120000e-01,
159,1.453600e+01,7.800000e-01,
160,1.453600e+01,3.120000e-01,
161,1.406200e+01,9.360000e-01,
162,1.422000e+01,4.680000e-01,
163,1.453600e+01,9.360000e-01,
164,1.422000e+01,6.240000e-01,
165,1.453600e+01,1.092000e+00,
166,1.453600e+01,1.092000e+00,
167,1.406200e+01,6.240000e-01,
168,1.453600e+01,7.800000e-01,
169,1.406200e+01,1.248000e+00,
170,1.422000e+01,9.360000e-01,
171,1.453600e+01,1.248000e+00,
172,1.422000e+01,9.360000e-01,
173,1.453600e+01,1.404000e+00,
174,1.453600e+01,1.092000e+00,
175,1.406200e+01,1.404000e+00,
176,1.422000e+01,1.092000e+00,
177,1.453600e+01,1.560000e+00,
178,1.422000e+01,1.248000e+00,
179,1.453600e+01,1.716000e+00,
180,1.422000e+01,1.248000e+00,
181,1.453600e+01,1.716000e+00,
182,1.422000e+01,1.404000e+00,
183,1.453600e+01,1.872000e+00,
184,1.453600e+01,1.560000e+00,
185,1.406200e+01,1.872000e+00,
186,1.422000e+01,1.560000e+00,
187,1.453600e+01,2.028000e+00,
188,1.422000e+01,2.028000e+00,
189,1.453600e+01,1.560000e+00,
190,1.453600e+01,1.716000e+00,
191,1.422000e+01,2.184000e+00,
192,1.422000e+01,1.872000e+00,
193,1.453600e+01,2.340000e+00,
194,1.453600e+01,1.872000e+00,
195,1.422000e+01,2.340000e+00,
196,1.422000e+01,2.028000e+00,
197,1.453600e+01,2.496000e+00,
198,1.422000e+01,2.028000e+00,
199,1.453600e+01,2.496000e+00,
200,1.453600e+01,2.184000e+00,
201,1.406200e+01,2.652000e+00,
202,1.453600e+01,2.652000e+00,
203,1.406200e+01,2.184000e+00,
204,1.422000e+01,2.340000e+00,
205,1.453600e+01,2.808000e+00,
206,1.453600e+01,2.340000e+00,
207,1.422000e+01,2.808000e+00,
208,1.422000e+01,2.496000e+00,
209,1.453600e+01,2.964000e+00,
210,1.453600e+01,2.964000e+00,
211,1.406200e+01,2.496000e+00,
212,1.453600e+01,2.652000e+00,
213,1.422000e+01,3.120000e+00,
214,1.422000e+01,2.652000e+00,
215,1.453600e+01,3.120000e+00,
216,1.422000e+01,2.808000e+00,
217,1.453600e+01,3.276000e+00,
218,1.422000e+01,3.276000e+00,
219,1.453600e+01,2.808000e+00,
220,1.422000e+01,2.964000e+00,
221,1.469400e+01,3.432000e+00,
222,1.422000e+01,2.964000e+00,
223,1.453600e+01,3.432000e+00,
224,1.422000e+01,3.120000e+00,
225,1.453600e+01,3.588000e+00,
226,1.422000e+01,3.120000e+00,
227,1.453600e+01,3.588000e+00,
228,1.422000e+01,3.276000e+00,
229,1.453600e+01,3.588000e+00,
230,1.422000e+01,3.276000e+00,
231,1.453600e+01,3.744000e+00,
232,1.422000e+01,3.432000e+00,
233,1.453600e+01,3.744000e+00,
234,1.453600e+01,3.432000e+00,
235,1.406200e+01,3.900000e+00,
236,1.453600e+01,3.900000e+00,
237,1.422000e+01,3.432000e+00,
238,1.453600e+01,3.588000e+00,
239,1.406200e+01,4.056000e+00,
240,1.422000e+01,3.588000e+00,
241,1.453600e+01,4.212000e+00,
242,1.422000e+01,3.744000e+00,
243,1.453600e+01,4.212000e+00,
244,1.422000e+01,4.212000e+00,
245,1.453600e+01,3.744000e+00,
246,1.422000e+01,3.900000e+00,
247,1.453600e+01,4.368000e+00,
248,1.422000e+01,4.368000e+00,
249,1.453600e+01,3.900000e+00,
250,1.422000e+01,4.056000e+00,
251,1.453600e+01,4.524000e+00,
252,1.422000e+01,4.056000e+00,
253,1.453600e+01,4.524000e+00,
254,1.422000e+01,4.212000e+00,
255,1.453600e+01,4.524000e+00,
256,1.453600e+01,4.212000e+00,
257,1.422000e+01,4.680000e+00,
258,1.422000e+01,4.680000e+00,
259,1.453600e+01,4.212000e+00,
260,1.422000e+01,4.368000e+00,
261,1.453600e+01,4.836000e+00,
262,1.422000e+01,4.836000e+00,
263,1.453600e+01,4.368000e+00,
264,1.422000e+01,4.524000e+00,
265,1.453600e+01,4.836000e+00,
266,1.422000e+01,4.524000e+00,
267,1.453600e+01,4.992000e+00,
268,1.422000e+01,4.680000e+00,
269,1.453600e+01,4.992000e+00,
270,1.422000e+01,4.680000e+00,
271,1.453600e+01,5.148000e+00,
272,1.422000e+01,5.148000e+00,
273,1.453600e+01,4.680000e+00,
274,1.422000e+01,4.836000e+00,
275,1.453600e+01,5.304000e+00,
276,1.422000e+01,4.836000e+00,
277,1.453600e+01,5.304000e+00,
278,1.453600e+01,4.992000e+00,
279,1.406200e+01,5.304000e+00,
280,1.453600e+01,4.992000e+00,
281,1.422000e+01,5.460000e+00,
282,1.422000e+01,5.460000e+00,
283,1.453600e+01,4.992000e+00,
284,1.422000e+01,5.148000e+00,
285,1.453600e+01,5.616000e+00,
286,1.422000e+01,5.148000e+00,
287,1.453600e+01,5.616000e+00,
288,1.422000e+01,5.616000e+00,
289,1.453600e+01,5.148000e+00,
290,1.422000e+01,5.304000e+00,
291,1.453600e+01,5.772000e+00,
292,1.453600e+01,5.772000e+00,
293,1.422000e+01,5.304000e+00,
294,1.422000e+01,5.460000e+00,
295,1.453600e+01,5.928000e+00,
296,1.422000e+01,5.460000e+00,
297,1.453600e+01,5.928000e+00,
298,1.422000e+01,5.928000e+00,
299,1.453600e+01,5.460000e+00,
300,1.422000e+01,5.616000e+00,
301,1.453600e+01,6.084000e+00,
302,1.422000e+01,6.084000e+00,
303,1.453600e+01,5.616000e+00,
304,1.453600e+01,5.616000e+00,
305,1.406200e+01,6.240000e+00,
306,1.453600e+01,5.772000e+00,
307,1.422000e+01,6.240000e+00,
308,1.422000e+01,5.928000e+00,
309,1.453600e+01,6.240000e+00,
310,1.453600e+01,5.928000e+00,
311,1.422000e+01,6.396000e+00,
312,1.422000e+01,5.928000e+00,
313,1.453600e+01,6.396000e+00,
314,1.453600e+01,5.928000e+00,
315,1.422000e+01,6.396000e+00,
316,1.422000e+01,6.084000e+00,
317,1.453600e+01,6.552000e+00,
318,1.422000e+01,6.084000e+00,
319,1.453600e+01,6.552000e+00,
320,1.422000e+01,6.240000e+00,
321,1.453600e+01,6.552000e+00,
322,1.422000e+01,6.240000e+00,
323,1.453600e+01,6.708000e+00,
324,1.422000e+01,6.240000e+00,
325,1.453600e+01,6.708000e+00,
326,1.422000e+01,6.396000e+00,
327,1.453600e+01,6.708000e+00,
328,1.422000e+01,6.396000e+00,
329,1.453600e+01,6.864000e+00,
330,1.453600e+01,6.396000e+00,
331,1.422000e+01,6.864000e+00,
332,1.422000e+01,6.864000e+00,
333,1.453600e+01,6.396000e+00,
334,1.422000e+01,6.864000e+00,
335,1.453600e+01,6.552000e+00,
336,1.422000e+01,6.552000e+00,
337,1.453600e+01,7.020000e+00,
338,1.422000e+01,6.552000e+00,
339,1.469400e+01,7.020000e+00,
340,1.422000e+01,6.708000e+00,
341,1.453600e+01,7.020000e+00,
342,1.422000e+01,6.708000e+00,
343,1.453600e+01,7.176000e+00,
344,1.422000e+01,7.176000e+00,
345,1.453600e+01,6.708000e+00,
346,1.422000e+01,6.864000e+00,
347,1.453600e+01,7.332000e+00,
348,1.422000e+01,6.864000e+00,
349,1.453600e+01,7.332000e+00,
350,1.422000e+01,6.864000e+00,
351,1.453600e+01,7.332000e+00,
352,1.422000e+01,7.332000e+00,
353,1.453600e+01,6.864000e+00,
354,1.422000e+01,7.332000e+00,
355,1.453600e+01,7.020000e+00,
356,1.422000e+01,7.488000e+00,
357,1.453600e+01,7.020000e+00,
358,1.453600e+01,7.176000e+00,
359,6.794000e+00,7.488000e+00,
360,6.952000e+00,7.488000e+00,
361,-1.580000e+00,7.020000e+00,
362,-1.264000e+00,7.488000e+00,
363,-9.954000e+00,7.020000e+00,
364,-9.796000e+00,7.332000e+00,
365,-1.295600e+01,6.864000e+00,
366,-1.279800e+01,7.176000e+00,
367,-1.232400e+01,6.708000e+00,
368,-1.279800e+01,7.020000e+00,
369,-1.232400e+01,6.552000e+00,
370,-1.279800e+01,6.864000e+00,
371,-1.232400e+01,6.552000e+00,
372,-1.279800e+01,6.864000e+00,
373,-1.232400e+01,6.396000e+00,
374,-1.279800e+01,6.708000e+00,
375,-1.232400e+01,6.240000e+00,
376,-1.279800e+01,6.552000e+00,
377,-1.232400e+01,6.084000e+00,
378,-1.279800e+01,6.396000e+00,
379,-1.232400e+01,5.928000e+00,
380,-1.279800e+01,6.240000e+00,
381,-1.232400e+01,5.772000e+00,
382,-1.279800e+01,6.240000e+00,
383,-1.232400e+01,5.772000e+00,
384,-1.279800e+01,6.084000e+00,
385,-1.232400e+01,5.616000e+00,
386,-1.279800e+01,5.928000e+00,
387,-1.232400e+01,5.460000e+00,
388,-1.279800e+01,5.772000e+00,
389,-1.232400e+01,5.304000e+00,
390,-1.279800e+01,5.616000e+00,
391,-1.232400e+01,5.148000e+00,
392,-1.279800e+01,5.460000e+00,
393,-1.232400e+01,4.992000e+00,
394,-1.279800e+01,4.992000e+00,
395,-1.232400e+01,5.460000e+00,
396,-1.279800e+01,5.304000e+00,
397,-1.232400e+01,4.836000e+00,
398,-1.279800e+01,5.148000e+00,
399,-1.232400e+01,4.680000e+00,
400,-1.279800e+01,4.992000e+00,
401,-1.232400e+01,4.524000e+00,
402,-1.279800e+01,4.992000e+00,
403,-1.232400e+01,4.524000e+00,
404,-1.279800e+01,4.836000e+00,
405,-1.232400e+01,4.368000e+00,
406,-1.279800e+01,4.680000e+00,
407,-1.232400e+01,4.212000e+00,
408,-1.279800e+01,4.524000e+00,
409,-1.232400e+01,4.056000e+00,
410,-1.232400e+01,4.056000e+00,
411,-1.295600e+01,4.524000e+00,
412,-1.279800e+01,4.368000e+00,
413,-1.232400e+01,3.900000e+00,
414,-1.279800e+01,4.212000e+00,
415,-1.232400e+01,3.744000e+00,
416,-1.279800e+01,4.212000e+00,
417,-1.232400e+01,3.588000e+00,
418,-1.279800e+01,3.588000e+00,
419,-1.232400e+01,4.056000e+00,
420,-1.279800e+01,3.900000e+00,
421,-1.232400e+01,3.432000e+00,
422,-1.279800e+01,3.744000e+00,
423,-1.232400e+01,3.276000e+00,
424,-1.279800e+01,3.588000e+00,
425,-1.232400e+01,3.276000e+00,
426,-1.279800e+01,3.588000e+00,
427,-1.232400e+01,3.120000e+00,
428,-1.279800e+01,3.432000e+00,
429,-1.232400e+01,2.964000e+00,
430,-1.279800e+01,3.276000e+00,
431,-1.232400e+01,2.808000e+00,
432,-1.279800e+01,3.276000e+00,
433,-1.232400e+01,2.808000e+00,
434,-1.279800e+01,3.120000e+00,
435,-1.232400e+01,2.652000e+00,
436,-1.279800e+01,2.964000e+00,
437,-1.232400e+01,2.652000e+00,
438,-1.279800e+01,2.964000e+00,
439,-1.232400e+01,2.496000e+00,
440,-1.279800e+01,2.808000e+00,
441,-1.232400e+01,2.340000e+00,
442,-1.279800e+01,2.652000e+00,
443,-1.232400e+01,2.184000e+00,
444,-1.279800e+01,2.184000e+00,
445,-1.232400e+01,2.652000e+00,
446,-1.279800e+01,2.496000e+00,
447,-1.232400e+01,2.028000e+00,
448,-1.279800e+01,2.340000e+00,
449,-1.232400e+01,2.028000e+00,
450,-1.279800e+01,2.340000e+00,
451,-1.232400e+01,1.872000e+00,
452,-1.279800e+01,2.184000e+00,
453,-1.232400e+01,1.716000e+00,
454,-1.279800e+01,2.028000e+00,
455,-1.232400e+01,1.560000e+00,
456,-1.279800e+01,2.028000e+00,
457,-1.232400e+01,1.560000e+00,
458,-1.232400e+01,1.872000e+00,
459,-1.279800e+01,1.404000e+00,
460,-1.279800e+01,1.716000e+00,
461,-1.232400e+01,1.404000e+00,
462,-1.279800e+01,1.716000e+00,
463,-1.232400e+01,1.248000e+00,
464,-1.279800e+01,1.560000e+00,
465,-1.232400e+01,1.092000e+00,
466,-1.232400e+01,1.092000e+00,
467,-1.295600e+01,1.560000e+00,
468,-1.279800e+01,1.404000e+00,
469,-1.232400e+01,9.360000e-01,
470,-1.279800e+01,1.248000e+00,
471,-1.232400e+01,7.800000e-01,
472,-1.279800e+01,1.092000e+00,
473,-1.232400e+01,7.800000e-01,
474,-1.279800e+01,1.092000e+00,
475,-1.232400e+01,6.240000e-01,
476,-1.279800e+01,9.360000e-01,
477,-1.232400e+01,6.240000e-01,
478,-1.279800e+01,9.360000e-01,
479,-1.232400e+01,4.680000e-01,
480,-1.279800e+01,9.360000e-01,
481,-1.232400e+01,3.120000e-01,
482,-1.279800e+01,7.800000e-01,
483,-1.232400e+01,3.120000e-01,
484,-1.279800e+01,6.240000e-01,
485,-1.232400e+01,1.560000e-01,
486,-1.279800e+01,6.240000e-01,
487,-1.232400e+01,1.560000e-01,
488,-1.279800e+01,4.680000e-01,
489,-1.232400e+01,0.000000e+00,
490,-1.279800e+01,3.120000e-01,
491,-1.232400e+01,-1.560000e-01,
492,-1.279800e+01,3.120000e-01,
493,-1.232400e+01,-1.560000e-01,
494,-1.279800e+01,3.120000e-01,
495,-1.232400e+01,-3.120000e-01,
496,-1.279800e+01,1.560000e-01,
497,-1.232400e+01,-3.120000e-01,
498,-1.279800e+01,0.000000e+00,
499,-1.232400e+01,-4.680000e-01,
500,-1.279800e+01,-4.680000e-01,
501,-1.232400e+01,0.000000e+00,
502,-1.279800e+01,-1.560000e-01,
503,-1.232400e+01,-6.240000e-01,
504,-1.279800e+01,-1.560000e-01,
505,-1.232400e+01,-7.800000e-01,
506,-1.279800e+01,-3.120000e-01,
507,-1.232400e+01,-7.800000e-01,
508,-1.279800e+01,-7.800000e-01,
509,-1.232400e+01,-3.120000e-01,
510,-1.279800e+01,-4.680000e-01,
511,-1.232400e+01,-9.360000e-01,
512,-1.279800e+01,-9.360000e-01,
513,-1.232400e+01,-4.680000e-01,
514,-1.279800e+01,-6.240000e-01,
515,-1.232400e+01,-1.092000e+00,
516,-1.279800e+01,-1.092000e+00,
517,-1.232400e+01,-6.240000e-01,
518,-1.279800e+01,-7.800000e-01,
519,-1.232400e+01,-1.248000e+00,
520,-1.279800e+01,-7.800000e-01,
521,-1.232400e+01,-1.404000e+00,
522,-1.279800e+01,-9.360000e-01,
523,-1.232400e+01,-1.404000e+00,
524,-1.279800e+01,-1.092000e+00,
525,-1.232400e+01,-1.404000e+00,
526,-1.279800e+01,-1.092000e+00,
527,-1.232400e+01,-1.560000e+00,
528,-1.279800e+01,-1.560000e+00,
529,-1.232400e+01,-1.092000e+00,
530,-1.279800e+01,-1.248000e+00,
531,-1.232400e+01,-1.716000e+00,
532,-1.232400e+01,-1.404000e+00,
533,-1.295600e+01,-1.872000e+00,
534,-1.279800e+01,-1.404000e+00,
535,-1.232400e+01,-1.872000e+00,
536,-1.279800e+01,-1.560000e+00,
537,-1.232400e+01,-2.028000e+00,
538,-1.279800e+01,-1.560000e+00,
539,-1.232400e+01,-2.028000e+00,
540,-1.279800e+01,-1.716000e+00,
541,-1.232400e+01,-2.028000e+00,
542,-1.232400e+01,-1.716000e+00,
543,-1.279800e+01,-2.184000e+00,
544,-1.279800e+01,-1.872000e+00,
545,-1.232400e+01,-2.340000e+00,
546,-1.279800e+01,-1.872000e+00,
547,-1.232400e+01,-2.340000e+00,
548,-1.279800e+01,-2.028000e+00,
549,-1.232400e+01,-2.340000e+00,
550,-1.248200e+01,-2.028000e+00,
551,-1.279800e+01,-2.496000e+00,
552,-1.248200e+01,-2.184000e+00,
553,-1.279800e+01,-2.496000e+00,
554,-1.279800e+01,-2.184000e+00,
555,-1.232400e+01,-2.652000e+00,
556,-1.279800e+01,-2.652000e+00,
557,-1.232400e+01,-2.184000e+00,
558,-1.279800e+01,-2.652000e+00,
559,-1.232400e+01,-2.340000e+00,
560,-1.279800e+01,-2.340000e+00,
561,-1.232400e+01,-2.808000e+00,
562,-1.279800e+01,-2.496000e+00,
563,-1.232400e+01,-2.808000e+00,
564,-1.279800e+01,-2.496000e+00,
565,-1.232400e+01,-2.964000e+00,
566,-1.279800e+01,-2.652000e+00,
567,-1.232400e+01,-2.964000e+00,
568,-1.279800e+01,-2.652000e+00,
569,-1.232400e+01,-3.120000e+00,
570,-1.279800e+01,-3.120000e+00,
571,-1.232400e+01,-2.652000e+00,
572,-1.279800e+01,-3.120000e+00,
573,-1.232400e+01,-2.808000e+00,
574,-1.279800e+01,-2.808000e+00,
575,-1.232400e+01,-3.276000e+00,
576,-1.279800e+01,-2.964000e+00,
577,-1.232400e+01,-3.276000e+00,
578,-1.279800e+01,-2.964000e+00,
579,-1.232400e+01,-3.432000e+00,
580,-1.279800e+01,-3.120000e+00,
581,-1.232400e+01,-3.432000e+00,
582,-1.279800e+01,-3.120000e+00,
583,-1.232400e+01,-3.588000e+00,
584,-1.279800e+01,-3.120000e+00,
585,-1.232400e+01,-3.588000e+00,
586,-1.279800e+01,-3.276000e+00,
587,-1.232400e+01,-3.744000e+00,
588,-1.279800e+01,-3.276000e+00,
589,-1.232400e+01,-3.744000e+00,
590,-1.279800e+01,-3.432000e+00,
591,-1.232400e+01,-3.744000e+00,
592,-1.279800e+01,-3.432000e+00,
593,-1.232400e+01,-3.900000e+00,
594,-1.279800e+01,-3.900000e+00,
595,-1.232400e+01,-3.432000e+00,
596,-1.279800e+01,-3.588000e+00,
597,-1.232400e+01,-4.056000e+00,
598,-1.279800e+01,-3.588000e+00,
599,-1.232400e+01,-4.056000e+00,
600,-1.279800e+01,-3.744000e+00,
601,-1.232400e+01,-4.056000e+00,
602,-1.232400e+01,-3.744000e+00,
603,-1.279800e+01,-4.212000e+00,
604,-1.279800e+01,-4.212000e+00,
605,-1.232400e+01,-3.744000e+00,
606,-1.279800e+01,-3.900000e+00,
607,-1.232400e+01,-4.368000e+00,
608,-1.279800e+01,-3.900000e+00,
609,-1.232400e+01,-4.368000e+00,
610,-1.279800e+01,-4.056000e+00,
611,-1.232400e+01,-4.368000e+00,
612,-1.279800e+01,-4.056000e+00,
613,-1.232400e+01,-4.524000e+00,
614,-1.279800e+01,-4.524000e+00,
615,-1.232400e+01,-4.056000e+00,
616,-1.279800e+01,-4.212000e+00,
617,-1.232400e+01,-4.524000e+00,
618,-1.279800e+01,-4.212000e+00,
619,-1.232400e+01,-4.680000e+00,
620,-1.279800e+01,-4.680000e+00,
621,-1.232400e+01,-4.212000e+00,
622,-1.279800e+01,-4.368000e+00,
623,-1.232400e+01,-4.836000e+00,
624,-1.279800e+01,-4.368000e+00,
625,-1.232400e+01,-4.836000e+00,
626,-1.279800e+01,-4.836000e+00,
