Esp5/5_Esperienza/1-Oscillatore a rilassamento/rilass_single_5k.csv

X,CH1,CH2,Start,Increment,
Sequence,Volt,Volt,-3.500000e-02,5.000000e-05,
0,4.740000e-01,-1.560000e-01,
1,0.000000e+00,3.120000e-01,
2,4.740000e-01,-1.560000e-01,
3,0.000000e+00,3.120000e-01,
4,4.740000e-01,-1.560000e-01,
5,0.000000e+00,3.120000e-01,
6,4.740000e-01,-1.560000e-01,
7,0.000000e+00,3.120000e-01,
8,4.740000e-01,-1.560000e-01,
9,0.000000e+00,3.120000e-01,
10,4.740000e-01,3.120000e-01,
11,0.000000e+00,-1.560000e-01,
12,0.000000e+00,3.120000e-01,
13,4.740000e-01,-1.560000e-01,
14,4.740000e-01,-1.560000e-01,
15,0.000000e+00,3.120000e-01,
16,4.740000e-01,3.120000e-01,
17,0.000000e+00,-1.560000e-01,
18,4.740000e-01,-1.560000e-01,
19,0.000000e+00,3.120000e-01,
20,0.000000e+00,3.120000e-01,
21,4.740000e-01,-1.560000e-01,
22,4.740000e-01,-1.560000e-01,
23,0.000000e+00,3.120000e-01,
24,4.740000e-01,-1.560000e-01,
25,0.000000e+00,3.120000e-01,
26,4.740000e-01,-1.560000e-01,
27,0.000000e+00,3.120000e-01,
28,0.000000e+00,-1.560000e-01,
29,4.740000e-01,3.120000e-01,
30,4.740000e-01,-1.560000e-01,
31,0.000000e+00,3.120000e-01,
32,4.740000e-01,-1.560000e-01,
33,0.000000e+00,3.120000e-01,
34,4.740000e-01,-1.560000e-01,
35,0.000000e+00,3.120000e-01,
36,0.000000e+00,-1.560000e-01,
37,4.740000e-01,3.120000e-01,
38,4.740000e-01,-1.560000e-01,
39,0.000000e+00,3.120000e-01,
40,4.740000e-01,-1.560000e-01,
41,0.000000e+00,3.120000e-01,
42,4.740000e-01,3.120000e-01,
43,0.000000e+00,-1.560000e-01,
44,4.740000e-01,3.120000e-01,
45,0.000000e+00,-1.560000e-01,
46,4.740000e-01,-1.560000e-01,
47,0.000000e+00,3.120000e-01,
48,4.740000e-01,-1.560000e-01,
49,0.000000e+00,3.120000e-01,
50,4.740000e-01,-1.560000e-01,
51,0.000000e+00,3.120000e-01,
52,4.740000e-01,3.120000e-01,
53,0.000000e+00,-1.560000e-01,
54,4.740000e-01,3.120000e-01,
55,0.000000e+00,-1.560000e-01,
56,4.740000e-01,-1.560000e-01,
57,0.000000e+00,3.120000e-01,
58,4.740000e-01,-1.560000e-01,
59,0.000000e+00,3.120000e-01,
60,4.740000e-01,-1.560000e-01,
61,0.000000e+00,3.120000e-01,
62,4.740000e-01,-1.560000e-01,
63,0.000000e+00,3.120000e-01,
64,4.740000e-01,-1.560000e-01,
65,0.000000e+00,3.120000e-01,
66,4.740000e-01,-1.560000e-01,
67,0.000000e+00,3.120000e-01,
68,4.740000e-01,3.120000e-01,
69,0.000000e+00,-1.560000e-01,
70,4.740000e-01,3.120000e-01,
71,0.000000e+00,-1.560000e-01,
72,4.740000e-01,-1.560000e-01,
73,0.000000e+00,3.120000e-01,
74,4.740000e-01,-1.560000e-01,
75,0.000000e+00,3.120000e-01,
76,4.740000e-01,3.120000e-01,
77,0.000000e+00,-1.560000e-01,
78,4.740000e-01,-1.560000e-01,
79,0.000000e+00,3.120000e-01,
80,4.740000e-01,-1.560000e-01,
81,0.000000e+00,3.120000e-01,
82,4.740000e-01,-1.560000e-01,
83,0.000000e+00,3.120000e-01,
84,4.740000e-01,-1.560000e-01,
85,0.000000e+00,3.120000e-01,
86,4.740000e-01,-1.560000e-01,
87,0.000000e+00,3.120000e-01,
88,4.740000e-01,-1.560000e-01,
89,0.000000e+00,3.120000e-01,
90,4.740000e-01,-1.560000e-01,
91,0.000000e+00,3.120000e-01,
92,4.740000e-01,-1.560000e-01,
93,0.000000e+00,3.120000e-01,
94,4.740000e-01,-1.560000e-01,
95,0.000000e+00,3.120000e-01,
96,4.740000e-01,3.120000e-01,
97,0.000000e+00,-1.560000e-01,
98,4.740000e-01,-1.560000e-01,
99,0.000000e+00,3.120000e-01,
100,4.740000e-01,3.120000e-01,
101,0.000000e+00,-1.560000e-01,
102,0.000000e+00,3.120000e-01,
103,4.740000e-01,-1.560000e-01,
104,4.740000e-01,3.120000e-01,
105,0.000000e+00,-1.560000e-01,
106,4.740000e-01,-1.560000e-01,
107,0.000000e+00,3.120000e-01,
108,4.740000e-01,3.120000e-01,
109,0.000000e+00,-1.560000e-01,
110,4.740000e-01,3.120000e-01,
111,0.000000e+00,-1.560000e-01,
112,0.000000e+00,-1.560000e-01,
113,4.740000e-01,3.120000e-01,
114,4.740000e-01,-1.560000e-01,
115,0.000000e+00,3.120000e-01,
116,4.740000e-01,3.120000e-01,
117,0.000000e+00,-1.560000e-01,
118,4.740000e-01,-1.560000e-01,
119,0.000000e+00,3.120000e-01,
120,4.740000e-01,3.120000e-01,
121,0.000000e+00,-1.560000e-01,
122,4.740000e-01,3.120000e-01,
123,0.000000e+00,-1.560000e-01,
124,4.740000e-01,3.120000e-01,
125,0.000000e+00,-1.560000e-01,
126,4.740000e-01,3.120000e-01,
127,0.000000e+00,-1.560000e-01,
128,4.740000e-01,3.120000e-01,
129,0.000000e+00,-1.560000e-01,
130,4.740000e-01,-1.560000e-01,
131,0.000000e+00,3.120000e-01,
132,4.740000e-01,3.120000e-01,
133,0.000000e+00,-1.560000e-01,
134,4.740000e-01,-1.560000e-01,
135,0.000000e+00,3.120000e-01,
136,4.740000e-01,-1.560000e-01,
137,0.000000e+00,3.120000e-01,
138,4.740000e-01,3.120000e-01,
139,0.000000e+00,-1.560000e-01,
140,0.000000e+00,3.120000e-01,
141,4.740000e-01,-1.560000e-01,
142,4.740000e-01,-1.560000e-01,
143,0.000000e+00,3.120000e-01,
144,4.740000e-01,3.120000e-01,
145,0.000000e+00,-1.560000e-01,
146,4.740000e-01,3.120000e-01,
147,0.000000e+00,-1.560000e-01,
148,4.740000e-01,-1.560000e-01,
149,0.000000e+00,3.120000e-01,
150,4.740000e-01,3.120000e-01,
151,0.000000e+00,-1.560000e-01,
152,4.740000e-01,3.120000e-01,
153,0.000000e+00,-1.560000e-01,
154,4.740000e-01,3.120000e-01,
155,0.000000e+00,-1.560000e-01,
156,4.740000e-01,3.120000e-01,
157,0.000000e+00,-1.560000e-01,
158,4.740000e-01,3.120000e-01,
159,0.000000e+00,-1.560000e-01,
160,4.740000e-01,-1.560000e-01,
161,0.000000e+00,3.120000e-01,
162,4.740000e-01,-1.560000e-01,
163,0.000000e+00,3.120000e-01,
164,4.740000e-01,3.120000e-01,
165,0.000000e+00,-1.560000e-01,
166,1.580000e-01,3.120000e-01,
167,4.740000e-01,-1.560000e-01,
168,4.740000e-01,-1.560000e-01,
169,0.000000e+00,3.120000e-01,
170,1.580000e-01,-1.560000e-01,
171,4.740000e-01,3.120000e-01,
172,4.740000e-01,-1.560000e-01,
173,0.000000e+00,3.120000e-01,
174,4.740000e-01,3.120000e-01,
175,0.000000e+00,-1.560000e-01,
176,4.740000e-01,3.120000e-01,
177,0.000000e+00,-1.560000e-01,
178,4.740000e-01,-1.560000e-01,
179,0.000000e+00,3.120000e-01,
180,4.740000e-01,-1.560000e-01,
181,0.000000e+00,3.120000e-01,
182,4.740000e-01,-1.560000e-01,
183,0.000000e+00,3.120000e-01,
184,4.740000e-01,3.120000e-01,
185,0.000000e+00,-1.560000e-01,
186,4.740000e-01,-1.560000e-01,
187,0.000000e+00,3.120000e-01,
188,4.740000e-01,3.120000e-01,
189,0.000000e+00,-1.560000e-01,
190,0.000000e+00,-1.560000e-01,
191,4.740000e-01,3.120000e-01,
192,4.740000e-01,3.120000e-01,
193,0.000000e+00,-1.560000e-01,
194,4.740000e-01,-1.560000e-01,
195,0.000000e+00,3.120000e-01,
196,4.740000e-01,3.120000e-01,
197,0.000000e+00,-1.560000e-01,
198,4.740000e-01,-1.560000e-01,
199,0.000000e+00,3.120000e-01,
200,4.740000e-01,3.120000e-01,
201,0.000000e+00,-1.560000e-01,
202,4.740000e-01,-1.560000e-01,
203,0.000000e+00,3.120000e-01,
204,4.740000e-01,3.120000e-01,
205,0.000000e+00,-1.560000e-01,
206,4.740000e-01,-1.560000e-01,
207,0.000000e+00,3.120000e-01,
208,4.740000e-01,-1.560000e-01,
209,0.000000e+00,3.120000e-01,
210,4.740000e-01,3.120000e-01,
211,0.000000e+00,-1.560000e-01,
212,4.740000e-01,3.120000e-01,
213,0.000000e+00,-1.560000e-01,
214,4.740000e-01,3.120000e-01,
215,0.000000e+00,-1.560000e-01,
216,4.740000e-01,-1.560000e-01,
217,0.000000e+00,3.120000e-01,
218,0.000000e+00,3.120000e-01,
219,4.740000e-01,-1.560000e-01,
220,4.740000e-01,-1.560000e-01,
221,0.000000e+00,3.120000e-01,
222,4.740000e-01,3.120000e-01,
223,0.000000e+00,-1.560000e-01,
224,4.740000e-01,3.120000e-01,
225,0.000000e+00,-1.560000e-01,
226,4.740000e-01,3.120000e-01,
227,0.000000e+00,-1.560000e-01,
228,0.000000e+00,3.120000e-01,
229,4.740000e-01,-1.560000e-01,
230,4.740000e-01,3.120000e-01,
231,0.000000e+00,-1.560000e-01,
232,0.000000e+00,-1.560000e-01,
233,4.740000e-01,3.120000e-01,
234,4.740000e-01,3.120000e-01,
235,0.000000e+00,-1.560000e-01,
236,4.740000e-01,-1.560000e-01,
237,0.000000e+00,3.120000e-01,
238,4.740000e-01,-1.560000e-01,
239,0.000000e+00,3.120000e-01,
240,4.740000e-01,3.120000e-01,
241,0.000000e+00,-1.560000e-01,
242,4.740000e-01,-1.560000e-01,
243,0.000000e+00,3.120000e-01,
244,4.740000e-01,-1.560000e-01,
245,0.000000e+00,3.120000e-01,
246,4.740000e-01,-1.560000e-01,
247,0.000000e+00,3.120000e-01,
248,4.740000e-01,3.120000e-01,
249,0.000000e+00,-1.560000e-01,
250,4.740000e-01,-1.560000e-01,
251,0.000000e+00,3.120000e-01,
252,0.000000e+00,-1.560000e-01,
253,4.740000e-01,3.120000e-01,
254,4.740000e-01,3.120000e-01,
255,0.000000e+00,-1.560000e-01,
256,4.740000e-01,-1.560000e-01,
257,0.000000e+00,3.120000e-01,
258,4.740000e-01,-1.560000e-01,
259,0.000000e+00,3.120000e-01,
260,4.740000e-01,-1.560000e-01,
261,0.000000e+00,3.120000e-01,
262,4.740000e-01,-1.560000e-01,
263,0.000000e+00,3.120000e-01,
264,0.000000e+00,-1.560000e-01,
265,4.740000e-01,3.120000e-01,
266,4.740000e-01,3.120000e-01,
267,0.000000e+00,-1.560000e-01,
268,4.740000e-01,-1.560000e-01,
269,0.000000e+00,3.120000e-01,
270,4.740000e-01,3.120000e-01,
271,0.000000e+00,-1.560000e-01,
272,4.740000e-01,-1.560000e-01,
273,0.000000e+00,3.120000e-01,
274,4.740000e-01,-1.560000e-01,
275,0.000000e+00,3.120000e-01,
276,4.740000e-01,-1.560000e-01,
277,0.000000e+00,3.120000e-01,
278,4.740000e-01,-1.560000e-01,
279,0.000000e+00,3.120000e-01,
280,0.000000e+00,3.120000e-01,
281,4.740000e-01,-1.560000e-01,
282,4.740000e-01,-1.560000e-01,
283,0.000000e+00,3.120000e-01,
284,4.740000e-01,-1.560000e-01,
285,0.000000e+00,3.120000e-01,
286,4.740000e-01,3.120000e-01,
287,0.000000e+00,-1.560000e-01,
288,0.000000e+00,-1.560000e-01,
289,4.740000e-01,3.120000e-01,
290,4.740000e-01,3.120000e-01,
291,0.000000e+00,-1.560000e-01,
292,0.000000e+00,-1.560000e-01,
293,4.740000e-01,3.120000e-01,
294,4.740000e-01,-1.560000e-01,
295,0.000000e+00,3.120000e-01,
296,4.740000e-01,-1.560000e-01,
297,0.000000e+00,3.120000e-01,
298,4.740000e-01,-1.560000e-01,
299,0.000000e+00,3.120000e-01,
300,4.740000e-01,-1.560000e-01,
301,0.000000e+00,3.120000e-01,
302,4.740000e-01,-1.560000e-01,
303,0.000000e+00,3.120000e-01,
304,4.740000e-01,3.120000e-01,
305,0.000000e+00,-1.560000e-01,
306,4.740000e-01,-1.560000e-01,
307,0.000000e+00,3.120000e-01,
308,4.740000e-01,3.120000e-01,
309,0.000000e+00,-1.560000e-01,
310,4.740000e-01,-1.560000e-01,
311,0.000000e+00,3.120000e-01,
312,4.740000e-01,-1.560000e-01,
313,0.000000e+00,3.120000e-01,
314,4.740000e-01,-1.560000e-01,
315,0.000000e+00,3.120000e-01,
316,4.740000e-01,-1.560000e-01,
317,0.000000e+00,3.120000e-01,
318,4.740000e-01,-1.560000e-01,
319,0.000000e+00,3.120000e-01,
320,4.740000e-01,-1.560000e-01,
321,0.000000e+00,3.120000e-01,
322,4.740000e-01,-1.560000e-01,
323,0.000000e+00,3.120000e-01,
324,4.740000e-01,-1.560000e-01,
325,0.000000e+00,3.120000e-01,
326,4.740000e-01,-1.560000e-01,
327,0.000000e+00,3.120000e-01,
328,4.740000e-01,-1.560000e-01,
329,0.000000e+00,3.120000e-01,
330,4.740000e-01,-1.560000e-01,
331,0.000000e+00,3.120000e-01,
332,4.740000e-01,-1.560000e-01,
333,0.000000e+00,3.120000e-01,
334,4.740000e-01,-1.560000e-01,
335,0.000000e+00,3.120000e-01,
336,4.740000e-01,-1.560000e-01,
337,0.000000e+00,3.120000e-01,
338,4.740000e-01,3.120000e-01,
339,0.000000e+00,-1.560000e-01,
340,4.740000e-01,3.120000e-01,
341,0.000000e+00,-1.560000e-01,
342,4.740000e-01,3.120000e-01,
343,0.000000e+00,-1.560000e-01,
344,4.740000e-01,-1.560000e-01,
345,0.000000e+00,3.120000e-01,
346,4.740000e-01,3.120000e-01,
347,0.000000e+00,-1.560000e-01,
348,0.000000e+00,-1.560000e-01,
349,4.740000e-01,3.120000e-01,
350,4.740000e-01,3.120000e-01,
351,0.000000e+00,-1.560000e-01,
352,0.000000e+00,3.120000e-01,
353,4.740000e-01,-1.560000e-01,
354,4.740000e-01,3.120000e-01,
355,0.000000e+00,-1.560000e-01,
356,4.740000e-01,-1.560000e-01,
357,0.000000e+00,3.120000e-01,
358,4.740000e-01,3.120000e-01,
359,0.000000e+00,-1.560000e-01,
360,0.000000e+00,3.120000e-01,
361,4.740000e-01,-1.560000e-01,
362,4.740000e-01,3.120000e-01,
363,0.000000e+00,-1.560000e-01,
364,4.740000e-01,-1.560000e-01,
365,0.000000e+00,3.120000e-01,
366,0.000000e+00,3.120000e-01,
367,4.740000e-01,-1.560000e-01,
368,4.740000e-01,3.120000e-01,
369,0.000000e+00,-1.560000e-01,
370,4.740000e-01,3.120000e-01,
371,0.000000e+00,-1.560000e-01,
372,0.000000e+00,-1.560000e-01,
373,4.740000e-01,3.120000e-01,
374,4.740000e-01,-1.560000e-01,
375,0.000000e+00,3.120000e-01,
376,4.740000e-01,-1.560000e-01,
377,0.000000e+00,3.120000e-01,
378,4.740000e-01,3.120000e-01,
379,0.000000e+00,-1.560000e-01,
380,4.740000e-01,3.120000e-01,
381,0.000000e+00,-1.560000e-01,
382,4.740000e-01,3.120000e-01,
383,0.000000e+00,-1.560000e-01,
384,4.740000e-01,-1.560000e-01,
385,0.000000e+00,3.120000e-01,
386,4.740000e-01,-1.560000e-01,
387,0.000000e+00,3.120000e-01,
388,4.740000e-01,3.120000e-01,
389,0.000000e+00,-1.560000e-01,
390,4.740000e-01,-1.560000e-01,
391,0.000000e+00,3.120000e-01,
392,0.000000e+00,-1.560000e-01,
393,4.740000e-01,3.120000e-01,
394,4.740000e-01,-1.560000e-01,
395,0.000000e+00,3.120000e-01,
396,4.740000e-01,-1.560000e-01,
397,0.000000e+00,3.120000e-01,
398,0.000000e+00,-1.560000e-01,
399,4.740000e-01,3.120000e-01,
400,4.740000e-01,3.120000e-01,
401,0.000000e+00,-1.560000e-01,
402,4.740000e-01,-1.560000e-01,
403,0.000000e+00,3.120000e-01,
404,4.740000e-01,-1.560000e-01,
405,0.000000e+00,3.120000e-01,
406,4.740000e-01,3.120000e-01,
407,0.000000e+00,-1.560000e-01,
408,4.740000e-01,3.120000e-01,
409,0.000000e+00,-1.560000e-01,
410,4.740000e-01,-1.560000e-01,
411,0.000000e+00,3.120000e-01,
412,0.000000e+00,3.120000e-01,
413,4.740000e-01,-1.560000e-01,
414,4.740000e-01,3.120000e-01,
415,0.000000e+00,-1.560000e-01,
416,4.740000e-01,-1.560000e-01,
417,0.000000e+00,3.120000e-01,
418,4.740000e-01,-1.560000e-01,
419,0.000000e+00,3.120000e-01,
420,4.740000e-01,-1.560000e-01,
421,0.000000e+00,3.120000e-01,
422,4.740000e-01,3.120000e-01,
423,0.000000e+00,-1.560000e-01,
424,4.740000e-01,3.120000e-01,
425,0.000000e+00,-1.560000e-01,
426,4.740000e-01,3.120000e-01,
427,0.000000e+00,-1.560000e-01,
428,4.740000e-01,3.120000e-01,
429,0.000000e+00,-1.560000e-01,
430,4.740000e-01,3.120000e-01,
431,0.000000e+00,-1.560000e-01,
432,4.740000e-01,3.120000e-01,
433,0.000000e+00,-1.560000e-01,
434,4.740000e-01,3.120000e-01,
435,0.000000e+00,-1.560000e-01,
436,4.740000e-01,-1.560000e-01,
437,0.000000e+00,3.120000e-01,
438,4.740000e-01,3.120000e-01,
439,0.000000e+00,-1.560000e-01,
440,4.740000e-01,-1.560000e-01,
441,0.000000e+00,3.120000e-01,
442,4.740000e-01,3.120000e-01,
443,0.000000e+00,-1.560000e-01,
444,4.740000e-01,-1.560000e-01,
445,0.000000e+00,3.120000e-01,
446,0.000000e+00,3.120000e-01,
447,4.740000e-01,-1.560000e-01,
448,4.740000e-01,-1.560000e-01,
449,0.000000e+00,3.120000e-01,
450,4.740000e-01,3.120000e-01,
451,0.000000e+00,-1.560000e-01,
452,4.740000e-01,3.120000e-01,
453,0.000000e+00,-1.560000e-01,
454,4.740000e-01,-1.560000e-01,
455,0.000000e+00,3.120000e-01,
456,4.740000e-01,3.120000e-01,
457,0.000000e+00,-1.560000e-01,
458,4.740000e-01,-1.560000e-01,
459,0.000000e+00,3.120000e-01,
460,4.740000e-01,-1.560000e-01,
461,0.000000e+00,3.120000e-01,
462,4.740000e-01,3.120000e-01,
463,0.000000e+00,-1.560000e-01,
464,4.740000e-01,3.120000e-01,
465,0.000000e+00,-1.560000e-01,
466,4.740000e-01,-1.560000e-01,
467,0.000000e+00,3.120000e-01,
468,4.740000e-01,-1.560000e-01,
469,0.000000e+00,3.120000e-01,
470,4.740000e-01,3.120000e-01,
471,0.000000e+00,-1.560000e-01,
472,4.740000e-01,3.120000e-01,
473,0.000000e+00,-1.560000e-01,
474,4.740000e-01,-1.560000e-01,
475,0.000000e+00,3.120000e-01,
476,4.740000e-01,3.120000e-01,
477,0.000000e+00,-1.560000e-01,
478,4.740000e-01,3.120000e-01,
479,0.000000e+00,-1.560000e-01,
480,4.740000e-01,3.120000e-01,
481,0.000000e+00,-1.560000e-01,
482,4.740000e-01,3.120000e-01,
483,0.000000e+00,-1.560000e-01,
484,4.740000e-01,3.120000e-01,
485,0.000000e+00,-1.560000e-01,
486,4.740000e-01,3.120000e-01,
487,0.000000e+00,-1.560000e-01,
488,4.740000e-01,3.120000e-01,
489,0.000000e+00,-1.560000e-01,
490,4.740000e-01,-1.560000e-01,
491,0.000000e+00,3.120000e-01,
492,4.740000e-01,3.120000e-01,
493,0.000000e+00,-1.560000e-01,
494,4.740000e-01,-1.560000e-01,
495,0.000000e+00,3.120000e-01,
496,4.740000e-01,3.120000e-01,
497,0.000000e+00,-1.560000e-01,
498,4.740000e-01,3.120000e-01,
499,0.000000e+00,-1.560000e-01,
500,4.740000e-01,3.120000e-01,
501,0.000000e+00,-1.560000e-01,
502,4.740000e-01,3.120000e-01,
503,0.000000e+00,-1.560000e-01,
504,0.000000e+00,3.120000e-01,
505,4.740000e-01,-1.560000e-01,
506,4.740000e-01,3.120000e-01,
507,0.000000e+00,-1.560000e-01,
508,4.740000e-01,3.120000e-01,
509,0.000000e+00,-1.560000e-01,
510,4.740000e-01,3.120000e-01,
511,0.000000e+00,-1.560000e-01,
512,4.740000e-01,3.120000e-01,
513,0.000000e+00,-1.560000e-01,
514,1.580000e-01,3.120000e-01,
515,6.320000e-01,-1.560000e-01,
516,3.160000e-01,-1.560000e-01,
517,9.480001e-01,3.120000e-01,
518,6.320000e-01,0.000000e+00,
519,1.264000e+00,4.680000e-01,
520,9.480001e-01,1.560000e-01,
521,1.422000e+00,6.240000e-01,
522,1.106000e+00,3.120000e-01,
523,1.580000e+00,7.800000e-01,
524,1.580000e+00,4.680000e-01,
525,1.106000e+00,9.360000e-01,
526,1.264000e+00,9.360000e-01,
527,1.738000e+00,4.680000e-01,
528,1.422000e+00,6.240000e-01,
529,1.896000e+00,1.092000e+00,
530,1.422000e+00,7.800000e-01,
531,1.896000e+00,1.248000e+00,
532,1.580000e+00,9.360000e-01,
533,2.054000e+00,1.404000e+00,
534,2.054000e+00,9.360000e-01,
535,1.580000e+00,1.404000e+00,
536,1.738000e+00,1.092000e+00,
537,2.212000e+00,1.560000e+00,
538,1.896000e+00,1.092000e+00,
539,2.370000e+00,1.716000e+00,
540,1.896000e+00,1.248000e+00,
541,2.370000e+00,1.716000e+00,
542,2.054000e+00,1.404000e+00,
543,2.528000e+00,1.872000e+00,
544,2.054000e+00,1.560000e+00,
545,2.528000e+00,1.872000e+00,
546,2.212000e+00,1.560000e+00,
547,2.686000e+00,2.028000e+00,
548,2.370000e+00,1.716000e+00,
549,2.686000e+00,2.184000e+00,
550,2.844000e+00,1.716000e+00,
551,1.580000e+00,2.184000e+00,
552,2.686000e+00,1.716000e+00,
553,1.580000e+00,2.184000e+00,
554,1.580000e+00,2.184000e+00,
555,2.686000e+00,1.716000e+00,
556,2.686000e+00,2.184000e+00,
557,1.580000e+00,1.716000e+00,
558,2.686000e+00,1.716000e+00,
559,1.738000e+00,2.184000e+00,
560,1.738000e+00,1.716000e+00,
561,2.528000e+00,2.184000e+00,
562,2.528000e+00,2.184000e+00,
563,1.738000e+00,1.716000e+00,
564,1.738000e+00,2.184000e+00,
565,2.528000e+00,1.716000e+00,
566,2.528000e+00,2.184000e+00,
567,1.738000e+00,1.716000e+00,
568,2.370000e+00,2.184000e+00,
569,1.580000e+00,1.716000e+00,
570,1.580000e+00,1.716000e+00,
571,2.054000e+00,2.184000e+00,
572,1.896000e+00,2.028000e+00,
573,1.422000e+00,1.560000e+00,
574,1.738000e+00,2.028000e+00,
575,1.422000e+00,1.560000e+00,
576,1.422000e+00,1.872000e+00,
577,2.212000e+00,1.404000e+00,
578,2.212000e+00,1.560000e+00,
579,1.422000e+00,1.872000e+00,
580,1.422000e+00,1.872000e+00,
581,2.054000e+00,1.404000e+00,
582,1.422000e+00,1.872000e+00,
583,2.054000e+00,1.404000e+00,
584,1.896000e+00,1.404000e+00,
585,1.422000e+00,1.872000e+00,
586,1.422000e+00,1.716000e+00,
587,1.896000e+00,1.404000e+00,
588,1.896000e+00,1.716000e+00,
589,1.422000e+00,1.404000e+00,
590,1.896000e+00,1.404000e+00,
591,1.422000e+00,1.716000e+00,
592,1.422000e+00,1.716000e+00,
593,1.896000e+00,1.248000e+00,
594,1.738000e+00,1.716000e+00,
595,1.422000e+00,1.248000e+00,
596,1.738000e+00,1.716000e+00,
597,1.264000e+00,1.248000e+00,
598,1.422000e+00,1.248000e+00,
599,1.738000e+00,1.716000e+00,
600,1.738000e+00,1.248000e+00,
601,1.264000e+00,1.716000e+00,
602,1.738000e+00,1.560000e+00,
603,1.264000e+00,1.248000e+00,
604,1.264000e+00,1.248000e+00,
605,1.738000e+00,1.560000e+00,
606,1.264000e+00,1.248000e+00,
607,1.738000e+00,1.560000e+00,
608,1.580000e+00,1.560000e+00,
609,1.264000e+00,1.092000e+00,
610,1.264000e+00,1.560000e+00,
611,1.738000e+00,1.092000e+00,
612,1.580000e+00,1.560000e+00,
613,1.264000e+00,1.092000e+00,
614,1.580000e+00,1.092000e+00,
615,1.106000e+00,1.560000e+00,
616,1.580000e+00,1.404000e+00,
617,1.106000e+00,1.092000e+00,
618,1.106000e+00,1.092000e+00,
619,1.580000e+00,1.404000e+00,
620,1.106000e+00,1.092000e+00,
621,1.580000e+00,1.404000e+00,
622,1.422000e+00,1.092000e+00,
623,1.106000e+00,1.404000e+00,
624,1.106000e+00,1.404000e+00,
625,1.422000e+00,9.360000e-01,
626,1.422000e+00,1.404000e+00,
627,9.480001e-01,9.360000e-01,
628,1.422000e+00,9.360000e-01,
629,9.480001e-01,1.404000e+00,
630,9.480001e-01,1.248000e+00,
631,1.264000e+00,9.360000e-01,
632,1.264000e+00,9.360000e-01,
633,7.900000e-01,1.248000e+00,
634,1.264000e+00,1.248000e+00,
635,7.900000e-01,7.800000e-01,
636,7.900000e-01,1.092000e+00,
