Esp8/data/accensione3.csv

X,CH1,Start,Increment,
Sequence,Volt,-5.172000e-01,5.000000e-03,
0,0.000000e+00,
1,1.600000e-01,
2,0.000000e+00,
3,1.600000e-01,
4,0.000000e+00,
5,1.600000e-01,
6,1.600000e-01,
7,-8.000000e-02,
8,8.000000e-02,
9,-1.600000e-01,
10,0.000000e+00,
11,-2.400000e-01,
12,0.000000e+00,
13,-2.400000e-01,
14,-8.000000e-02,
15,-2.400000e-01,
16,-8.000000e-02,
17,-2.400000e-01,
18,-8.000000e-02,
19,-2.400000e-01,
20,-8.000000e-02,
21,-2.400000e-01,
22,-8.000000e-02,
23,-2.400000e-01,
24,-2.400000e-01,
25,-8.000000e-02,
26,-8.000000e-02,
27,-2.400000e-01,
28,-8.000000e-02,
29,-2.400000e-01,
30,-8.000000e-02,
31,-2.400000e-01,
32,-8.000000e-02,
33,-2.400000e-01,
34,-2.400000e-01,
35,0.000000e+00,
36,-8.000000e-02,
37,-2.400000e-01,
38,-2.400000e-01,
39,0.000000e+00,
40,-8.000000e-02,
41,-2.400000e-01,
42,-2.400000e-01,
43,0.000000e+00,
44,-8.000000e-02,
45,-2.400000e-01,
46,-8.000000e-02,
47,-2.400000e-01,
48,-8.000000e-02,
49,-2.400000e-01,
50,-8.000000e-02,
51,-2.400000e-01,
52,-8.000000e-02,
53,-2.400000e-01,
54,-8.000000e-02,
55,-2.400000e-01,
56,-8.000000e-02,
57,-2.400000e-01,
58,-2.400000e-01,
59,0.000000e+00,
60,-8.000000e-02,
61,-2.400000e-01,
62,-2.400000e-01,
63,0.000000e+00,
64,-2.400000e-01,
65,0.000000e+00,
66,-8.000000e-02,
67,-2.400000e-01,
68,-8.000000e-02,
69,-2.400000e-01,
70,-8.000000e-02,
71,-2.400000e-01,
72,-8.000000e-02,
73,-2.400000e-01,
74,-8.000000e-02,
75,-2.400000e-01,
76,-8.000000e-02,
77,-2.400000e-01,
78,-8.000000e-02,
79,-2.400000e-01,
80,-8.000000e-02,
81,-2.400000e-01,
82,-8.000000e-02,
83,-2.400000e-01,
84,-8.000000e-02,
85,-2.400000e-01,
86,-8.000000e-02,
87,-2.400000e-01,
88,-8.000000e-02,
89,-2.400000e-01,
90,-8.000000e-02,
91,-2.400000e-01,
92,-8.000000e-02,
93,-2.400000e-01,
94,-2.400000e-01,
95,0.000000e+00,
96,-8.000000e-02,
97,-2.400000e-01,
98,-8.000000e-02,
99,-2.400000e-01,
100,-8.000000e-02,
101,-2.400000e-01,
102,-2.400000e-01,
103,1.600000e-01,
104,-7.200000e-01,
105,8.000000e-01,
106,-5.440000e+00,
107,4.560000e+00,
108,-6.720000e+00,
109,5.600000e+00,
110,-6.880000e+00,
111,5.840000e+00,
112,-6.800000e+00,
113,5.920000e+00,
114,-6.560000e+00,
115,5.920000e+00,
116,-6.400000e+00,
117,6.000000e+00,
118,5.920000e+00,
119,-6.160000e+00,
120,5.600000e+00,
121,-5.360000e+00,
122,-3.200000e+00,
123,3.280000e+00,
124,-1.680000e+00,
125,1.760000e+00,
126,-8.000000e-01,
127,9.600000e-01,
128,5.600000e-01,
129,-4.000000e-01,
130,4.000000e-01,
131,-2.400000e-01,
132,-1.600000e-01,
133,2.400000e-01,
134,-1.600000e-01,
135,2.400000e-01,
136,2.400000e-01,
137,-8.000000e-02,
138,1.600000e-01,
139,-8.000000e-02,
140,1.600000e-01,
141,-8.000000e-02,
142,1.600000e-01,
143,-8.000000e-02,
144,1.600000e-01,
145,-8.000000e-02,
146,1.600000e-01,
147,-8.000000e-02,
148,1.600000e-01,
149,-8.000000e-02,
150,1.600000e-01,
151,-8.000000e-02,
152,-8.000000e-02,
153,1.600000e-01,
154,1.600000e-01,
155,-8.000000e-02,
156,1.600000e-01,
157,-8.000000e-02,
158,1.600000e-01,
159,-8.000000e-02,
160,1.600000e-01,
161,-8.000000e-02,
162,1.600000e-01,
163,-8.000000e-02,
164,1.600000e-01,
165,-8.000000e-02,
166,1.600000e-01,
167,-8.000000e-02,
168,1.600000e-01,
169,-8.000000e-02,
170,1.600000e-01,
171,-8.000000e-02,
172,1.600000e-01,
173,-8.000000e-02,
174,1.600000e-01,
175,-8.000000e-02,
176,1.600000e-01,
177,-8.000000e-02,
178,-8.000000e-02,
179,1.600000e-01,
180,-8.000000e-02,
181,2.400000e-01,
182,2.400000e-01,
183,-1.600000e-01,
184,-1.600000e-01,
185,3.200000e-01,
186,-2.400000e-01,
187,4.000000e-01,
188,5.600000e-01,
189,-4.800000e-01,
190,-7.200000e-01,
191,8.800000e-01,
192,-1.280000e+00,
193,1.440000e+00,
194,-2.160000e+00,
195,2.400000e+00,
196,-3.440000e+00,
197,3.680000e+00,
198,4.640000e+00,
199,-4.560000e+00,
200,-4.560000e+00,
201,4.720000e+00,
202,4.160000e+00,
203,-4.000000e+00,
204,-2.720000e+00,
205,2.800000e+00,
206,-1.680000e+00,
207,1.760000e+00,
208,1.120000e+00,
209,-9.600000e-01,
210,7.200000e-01,
211,-6.400000e-01,
212,-4.000000e-01,
213,5.600000e-01,
214,-2.400000e-01,
215,4.000000e-01,
216,-1.600000e-01,
217,3.200000e-01,
218,2.400000e-01,
219,-1.600000e-01,
220,2.400000e-01,
221,-8.000000e-02,
222,-8.000000e-02,
223,2.400000e-01,
224,-8.000000e-02,
225,1.600000e-01,
226,-8.000000e-02,
227,1.600000e-01,
228,-8.000000e-02,
229,2.400000e-01,
230,1.600000e-01,
231,-8.000000e-02,
232,-8.000000e-02,
233,1.600000e-01,
234,-8.000000e-02,
235,1.600000e-01,
236,1.600000e-01,
237,-8.000000e-02,
238,1.600000e-01,
239,-8.000000e-02,
240,1.600000e-01,
241,-8.000000e-02,
242,-8.000000e-02,
243,1.600000e-01,
244,-8.000000e-02,
245,1.600000e-01,
246,1.600000e-01,
247,-8.000000e-02,
248,1.600000e-01,
249,-8.000000e-02,
250,1.600000e-01,
251,-8.000000e-02,
252,-8.000000e-02,
253,2.400000e-01,
254,-8.000000e-02,
255,2.400000e-01,
256,2.400000e-01,
257,-1.600000e-01,
258,3.200000e-01,
259,-2.400000e-01,
260,4.000000e-01,
261,-3.200000e-01,
262,-4.000000e-01,
263,5.600000e-01,
264,-5.600000e-01,
265,7.200000e-01,
266,-8.800000e-01,
267,1.040000e+00,
268,1.440000e+00,
269,-1.360000e+00,
270,2.160000e+00,
271,-2.080000e+00,
272,3.120000e+00,
273,-3.040000e+00,
274,-3.840000e+00,
275,3.920000e+00,
276,4.000000e+00,
277,-3.920000e+00,
278,-3.680000e+00,
279,3.760000e+00,
280,-2.880000e+00,
281,2.960000e+00,
282,2.080000e+00,
283,-1.920000e+00,
284,1.440000e+00,
285,-1.280000e+00,
286,-8.800000e-01,
287,9.600000e-01,
288,-5.600000e-01,
289,7.200000e-01,
290,5.600000e-01,
291,-4.000000e-01,
292,4.000000e-01,
293,-3.200000e-01,
294,3.200000e-01,
295,-2.400000e-01,
296,-1.600000e-01,
297,3.200000e-01,
298,-1.600000e-01,
299,2.400000e-01,
300,2.400000e-01,
301,-1.600000e-01,
302,2.400000e-01,
303,-8.000000e-02,
304,2.400000e-01,
305,-1.600000e-01,
306,-8.000000e-02,
307,2.400000e-01,
308,-8.000000e-02,
309,2.400000e-01,
310,2.400000e-01,
311,-8.000000e-02,
312,2.400000e-01,
313,-1.600000e-01,
314,-8.000000e-02,
315,2.400000e-01,
316,-8.000000e-02,
317,2.400000e-01,
318,2.400000e-01,
319,-1.600000e-01,
320,2.400000e-01,
321,-1.600000e-01,
322,-1.600000e-01,
323,2.400000e-01,
324,3.200000e-01,
325,-2.400000e-01,
326,3.200000e-01,
327,-2.400000e-01,
328,-3.200000e-01,
329,4.800000e-01,
330,-4.000000e-01,
331,5.600000e-01,
332,-5.600000e-01,
333,7.200000e-01,
334,8.800000e-01,
335,-8.000000e-01,
336,1.200000e+00,
337,-1.120000e+00,
338,-1.600000e+00,
339,1.760000e+00,
340,-2.160000e+00,
341,2.400000e+00,
342,3.040000e+00,
343,-2.960000e+00,
344,3.440000e+00,
345,-3.360000e+00,
346,-3.360000e+00,
347,3.520000e+00,
348,3.280000e+00,
349,-3.120000e+00,
350,-2.560000e+00,
351,2.640000e+00,
352,-1.920000e+00,
353,2.000000e+00,
354,1.520000e+00,
355,-1.360000e+00,
356,1.120000e+00,
357,-9.600000e-01,
358,-7.200000e-01,
359,8.000000e-01,
360,-5.600000e-01,
361,6.400000e-01,
362,5.600000e-01,
363,-4.000000e-01,
364,4.800000e-01,
365,-3.200000e-01,
366,4.000000e-01,
367,-3.200000e-01,
368,-2.400000e-01,
369,3.200000e-01,
370,3.200000e-01,
371,-2.400000e-01,
372,3.200000e-01,
373,-1.600000e-01,
374,3.200000e-01,
375,-1.600000e-01,
376,-1.600000e-01,
377,3.200000e-01,
378,-1.600000e-01,
379,3.200000e-01,
380,-1.600000e-01,
381,3.200000e-01,
382,3.200000e-01,
383,-2.400000e-01,
384,3.200000e-01,
385,-2.400000e-01,
386,-2.400000e-01,
387,4.000000e-01,
388,-2.400000e-01,
389,4.000000e-01,
390,-3.200000e-01,
391,4.800000e-01,
392,-4.000000e-01,
393,5.600000e-01,
394,-4.800000e-01,
395,6.400000e-01,
396,8.000000e-01,
397,-7.200000e-01,
398,-8.800000e-01,
399,1.040000e+00,
400,-1.200000e+00,
401,1.360000e+00,
402,-1.600000e+00,
403,1.760000e+00,
404,-2.080000e+00,
405,2.240000e+00,
406,-2.640000e+00,
407,2.800000e+00,
408,3.040000e+00,
409,-2.960000e+00,
410,3.120000e+00,
411,-2.960000e+00,
412,-2.880000e+00,
413,2.960000e+00,
414,-2.480000e+00,
415,2.560000e+00,
416,2.080000e+00,
417,-1.920000e+00,
418,1.600000e+00,
419,-1.440000e+00,
420,1.200000e+00,
421,-1.120000e+00,
422,-8.800000e-01,
423,9.600000e-01,
424,-6.400000e-01,
425,8.000000e-01,
426,6.400000e-01,
427,-4.800000e-01,
428,5.600000e-01,
429,-4.800000e-01,
430,-4.000000e-01,
431,4.800000e-01,
432,-3.200000e-01,
433,4.800000e-01,
434,-3.200000e-01,
435,4.000000e-01,
436,4.000000e-01,
437,-3.200000e-01,
438,4.000000e-01,
439,-3.200000e-01,
440,4.000000e-01,
441,-3.200000e-01,
442,-3.200000e-01,
443,4.000000e-01,
444,4.000000e-01,
445,-3.200000e-01,
446,-3.200000e-01,
447,4.800000e-01,
448,-4.000000e-01,
449,4.800000e-01,
450,5.600000e-01,
451,-4.800000e-01,
452,-4.800000e-01,
453,6.400000e-01,
454,-6.400000e-01,
455,8.000000e-01,
456,8.800000e-01,
457,-8.000000e-01,
458,1.120000e+00,
459,-1.040000e+00,
460,-1.280000e+00,
461,1.440000e+00,
462,1.760000e+00,
463,-1.680000e+00,
464,2.160000e+00,
465,-2.080000e+00,
466,-2.400000e+00,
467,2.560000e+00,
468,-2.640000e+00,
469,2.800000e+00,
470,-2.640000e+00,
471,2.800000e+00,
472,2.720000e+00,
473,-2.560000e+00,
474,2.400000e+00,
475,-2.320000e+00,
476,-1.920000e+00,
477,2.000000e+00,
478,-1.520000e+00,
479,1.600000e+00,
480,1.360000e+00,
481,-1.200000e+00,
482,1.120000e+00,
483,-9.600000e-01,
484,8.800000e-01,
485,-8.000000e-01,
486,-6.400000e-01,
487,8.000000e-01,
488,-5.600000e-01,
489,6.400000e-01,
490,6.400000e-01,
491,-4.800000e-01,
492,5.600000e-01,
493,-4.000000e-01,
494,-4.000000e-01,
495,5.600000e-01,
496,-4.000000e-01,
497,4.800000e-01,
498,4.800000e-01,
499,-4.000000e-01,
500,4.800000e-01,
501,-4.000000e-01,
502,-4.000000e-01,
503,5.600000e-01,
504,5.600000e-01,
505,-4.800000e-01,
506,-4.800000e-01,
507,6.400000e-01,
508,-5.600000e-01,
509,7.200000e-01,
510,-6.400000e-01,
511,8.000000e-01,
512,8.800000e-01,
513,-8.000000e-01,
514,-9.600000e-01,
515,1.120000e+00,
516,1.280000e+00,
517,-1.200000e+00,
518,-1.440000e+00,
519,1.600000e+00,
520,-1.760000e+00,
521,1.920000e+00,
522,-2.080000e+00,
523,2.240000e+00,
524,-2.320000e+00,
525,2.480000e+00,
526,-2.400000e+00,
527,2.560000e+00,
528,-2.400000e+00,
529,2.560000e+00,
530,-2.320000e+00,
531,2.400000e+00,
532,-2.080000e+00,
533,2.160000e+00,
534,1.840000e+00,
535,-1.680000e+00,
536,1.520000e+00,
537,-1.440000e+00,
538,1.280000e+00,
539,-1.200000e+00,
540,-9.600000e-01,
541,1.120000e+00,
542,-8.000000e-01,
543,9.600000e-01,
544,8.000000e-01,
545,-7.200000e-01,
546,7.200000e-01,
547,-6.400000e-01,
548,-5.600000e-01,
549,6.400000e-01,
550,-4.800000e-01,
551,6.400000e-01,
552,6.400000e-01,
553,-4.800000e-01,
554,6.400000e-01,
555,-4.800000e-01,
556,-4.800000e-01,
557,6.400000e-01,
558,6.400000e-01,
559,-5.600000e-01,
560,-5.600000e-01,
561,6.400000e-01,
562,-6.400000e-01,
563,8.000000e-01,
564,-7.200000e-01,
565,8.800000e-01,
566,-8.000000e-01,
567,9.600000e-01,
568,-9.600000e-01,
569,1.120000e+00,
570,-1.120000e+00,
571,1.280000e+00,
572,1.440000e+00,
573,-1.360000e+00,
574,1.680000e+00,
575,-1.600000e+00,
576,-1.840000e+00,
577,2.000000e+00,
578,-2.080000e+00,
579,2.240000e+00,
580,-2.160000e+00,
581,2.320000e+00,
582,2.320000e+00,
583,-2.240000e+00,
584,-2.160000e+00,
585,2.320000e+00,
586,-2.080000e+00,
587,2.160000e+00,
588,2.000000e+00,
589,-1.840000e+00,
590,1.760000e+00,
591,-1.600000e+00,
592,1.440000e+00,
593,-1.360000e+00,
594,-1.120000e+00,
595,1.280000e+00,
596,-1.040000e+00,
597,1.120000e+00,
598,9.600000e-01,
599,-8.800000e-01,
600,8.800000e-01,
601,-7.200000e-01,
602,-7.200000e-01,
603,8.000000e-01,
604,-6.400000e-01,
605,8.000000e-01,
606,7.200000e-01,
607,-6.400000e-01,
608,7.200000e-01,
609,-6.400000e-01,
610,7.200000e-01,
611,-5.600000e-01,
612,-6.400000e-01,
613,8.000000e-01,
614,-6.400000e-01,
615,8.000000e-01,
616,-7.200000e-01,
617,8.800000e-01,
618,-8.000000e-01,
619,9.600000e-01,
620,-8.800000e-01,
621,1.040000e+00,
622,1.120000e+00,
623,-1.040000e+00,
624,1.280000e+00,
625,-1.200000e+00,
626,-1.360000e+00,
627,1.520000e+00,
628,-1.600000e+00,
629,1.760000e+00,
630,-1.760000e+00,
631,1.920000e+00,
632,2.080000e+00,
633,-2.000000e+00,
634,2.160000e+00,
635,-2.080000e+00,
636,2.160000e+00,
637,-2.080000e+00,
638,-2.000000e+00,
639,2.160000e+00,
640,-1.920000e+00,
641,2.080000e+00,
642,1.840000e+00,
643,-1.760000e+00,
644,1.680000e+00,
645,-1.520000e+00,
646,1.440000e+00,
647,-1.360000e+00,
648,-1.200000e+00,
649,1.360000e+00,
650,-1.040000e+00,
651,1.200000e+00,
652,1.040000e+00,
653,-9.600000e-01,
654,9.600000e-01,
655,-8.000000e-01,
656,-8.000000e-01,
657,8.800000e-01,
658,-7.200000e-01,
659,8.800000e-01,
660,8.000000e-01,
661,-7.200000e-01,
662,8.000000e-01,
663,-7.200000e-01,
664,8.000000e-01,
665,-7.200000e-01,
666,-7.200000e-01,
667,8.800000e-01,
668,8.800000e-01,
669,-8.000000e-01,
670,-8.000000e-01,
671,9.600000e-01,
672,1.040000e+00,
673,-9.600000e-01,
674,-1.040000e+00,
675,1.200000e+00,
676,1.280000e+00,
677,-1.200000e+00,
678,1.440000e+00,
679,-1.360000e+00,
680,-1.440000e+00,
681,1.600000e+00,
682,1.760000e+00,
683,-1.680000e+00,
684,-1.760000e+00,
685,1.920000e+00,
686,2.000000e+00,
687,-1.920000e+00,
688,-1.920000e+00,
689,2.080000e+00,
690,-1.920000e+00,
691,2.080000e+00,
692,-1.840000e+00,
693,2.000000e+00,
694,-1.760000e+00,
695,1.840000e+00,
696,-1.600000e+00,
697,1.760000e+00,
698,1.600000e+00,
699,-1.440000e+00,
700,1.440000e+00,
701,-1.280000e+00,
702,-1.200000e+00,
703,1.280000e+00,
704,-1.040000e+00,
705,1.200000e+00,
706,-9.600000e-01,
707,1.120000e+00,
708,9.600000e-01,
709,-8.800000e-01,
710,-8.000000e-01,
711,9.600000e-01,
712,-8.000000e-01,
713,8.800000e-01,
714,8.800000e-01,
715,-8.000000e-01,
716,-8.000000e-01,
717,9.600000e-01,
718,-8.000000e-01,
719,9.600000e-01,
720,-8.000000e-01,
721,9.600000e-01,
722,-8.800000e-01,
723,1.040000e+00,
724,-9.600000e-01,
725,1.120000e+00,
726,1.200000e+00,
727,-1.120000e+00,
728,-1.200000e+00,
729,1.360000e+00,
730,1.440000e+00,
731,-1.360000e+00,
732,-1.440000e+00,
733,1.600000e+00,
734,-1.600000e+00,
735,1.760000e+00,
736,-1.680000e+00,
737,1.840000e+00,
738,-1.760000e+00,
739,1.920000e+00,
740,-1.840000e+00,
741,2.000000e+00,
742,1.920000e+00,
743,-1.840000e+00,
744,1.920000e+00,
745,-1.760000e+00,
746,-1.680000e+00,
747,1.840000e+00,
748,-1.600000e+00,
749,1.680000e+00,
750,-1.440000e+00,
751,1.600000e+00,
752,1.440000e+00,
753,-1.280000e+00,
754,1.280000e+00,
755,-1.200000e+00,
756,-1.120000e+00,
757,1.200000e+00,
758,1.120000e+00,
759,-1.040000e+00,
760,1.040000e+00,
761,-9.600000e-01,
762,1.040000e+00,
763,-8.800000e-01,
764,9.600000e-01,
765,-8.800000e-01,
766,9.600000e-01,
767,-8.800000e-01,
768,-8.800000e-01,
769,9.600000e-01,
770,-8.800000e-01,
771,1.040000e+00,
772,1.040000e+00,
773,-9.600000e-01,
774,-9.600000e-01,
775,1.120000e+00,
776,-1.040000e+00,
777,1.200000e+00,
778,-1.120000e+00,
779,1.280000e+00,
780,-1.200000e+00,
781,1.360000e+00,
782,1.440000e+00,
783,-1.360000e+00,
784,-1.440000e+00,
785,1.600000e+00,
786,1.680000e+00,
787,-1.600000e+00,
788,1.760000e+00,
789,-1.680000e+00,
790,-1.680000e+00,
791,1.840000e+00,
792,1.840000e+00,
793,-1.760000e+00,
794,-1.680000e+00,
795,1.840000e+00,
796,1.840000e+00,
797,-1.680000e+00,
798,1.760000e+00,
799,-1.600000e+00,
800,-1.520000e+00,
801,1.680000e+00,
802,-1.440000e+00,
803,1.520000e+00,
804,-1.280000e+00,
805,1.440000e+00,
806,1.360000e+00,
807,-1.200000e+00,
808,1.200000e+00,
809,-1.120000e+00,
810,-1.040000e+00,
811,1.200000e+00,
812,-9.600000e-01,
813,1.120000e+00,
814,1.040000e+00,
815,-9.600000e-01,
816,1.040000e+00,
817,-9.600000e-01,
818,1.040000e+00,
819,-8.800000e-01,
820,1.040000e+00,
821,-9.600000e-01,
822,-9.600000e-01,
823,1.120000e+00,
824,-9.600000e-01,
825,1.120000e+00,
826,-1.040000e+00,
827,1.200000e+00,
828,-1.120000e+00,
829,1.280000e+00,
830,1.280000e+00,
831,-1.200000e+00,
832,-1.280000e+00,
833,1.440000e+00,
834,-1.360000e+00,
835,1.520000e+00,
836,-1.440000e+00,
837,1.600000e+00,
838,1.680000e+00,
839,-1.600000e+00,
840,-1.600000e+00,
841,1.760000e+00,
842,1.760000e+00,
843,-1.680000e+00,
844,1.760000e+00,
845,-1.680000e+00,
846,-1.680000e+00,
847,1.760000e+00,
848,-1.600000e+00,
849,1.760000e+00,
850,1.680000e+00,
851,-1.600000e+00,
852,1.600000e+00,
853,-1.440000e+00,
854,1.520000e+00,
855,-1.360000e+00,
856,-1.280000e+00,
857,1.440000e+00,
858,-1.200000e+00,
859,1.280000e+00,
860,1.280000e+00,
861,-1.120000e+00,
862,1.200000e+00,
863,-1.040000e+00,
864,-1.040000e+00,
865,1.120000e+00,
866,-9.600000e-01,
867,1.120000e+00,
868,-9.600000e-01,
869,1.120000e+00,
870,-9.600000e-01,
871,1.120000e+00,
872,1.120000e+00,
873,-1.040000e+00,
874,1.120000e+00,
875,-1.040000e+00,
876,-1.040000e+00,
877,1.200000e+00,
878,-1.120000e+00,
879,1.280000e+00,
880,1.280000e+00,
881,-1.200000e+00,
882,-1.200000e+00,
883,1.360000e+00,
884,1.440000e+00,
885,-1.360000e+00,
886,1.520000e+00,
887,-1.440000e+00,
888,-1.440000e+00,
889,1.600000e+00,
890,-1.520000e+00,
891,1.680000e+00,
892,-1.600000e+00,
893,1.760000e+00,
894,-1.600000e+00,
895,1.760000e+00,
896,1.760000e+00,
897,-1.600000e+00,
898,1.680000e+00,
899,-1.600000e+00,
900,-1.520000e+00,
901,1.680000e+00,
902,-1.440000e+00,
903,1.600000e+00,
904,-1.360000e+00,
905,1.520000e+00,
906,1.440000e+00,
907,-1.360000e+00,
908,1.360000e+00,
909,-1.280000e+00,
910,-1.200000e+00,
911,1.360000e+00,
912,-1.120000e+00,
913,1.280000e+00,
914,1.200000e+00,
915,-1.120000e+00,
916,1.200000e+00,
917,-1.040000e+00,
918,-1.040000e+00,
919,1.200000e+00,
920,1.120000e+00,
921,-1.040000e+00,
922,1.120000e+00,
923,-1.040000e+00,
924,-1.040000e+00,
925,1.200000e+00,
926,1.200000e+00,
927,-1.040000e+00,
928,-1.120000e+00,
929,1.280000e+00,
930,-1.120000e+00,
931,1.280000e+00,
932,-1.200000e+00,
933,1.360000e+00,
934,-1.280000e+00,
935,1.440000e+00,
936,-1.360000e+00,
937,1.520000e+00,
938,1.520000e+00,
939,-1.440000e+00,
940,-1.440000e+00,
941,1.600000e+00,
942,-1.520000e+00,
943,1.680000e+00,
944,-1.520000e+00,
945,1.680000e+00,
946,-1.520000e+00,
947,1.680000e+00,
948,-1.520000e+00,
949,1.680000e+00,
950,1.680000e+00,
951,-1.520000e+00,
952,1.600000e+00,
953,-1.440000e+00,
954,-1.440000e+00,
955,1.520000e+00,
956,-1.360000e+00,
957,1.440000e+00,
958,-1.280000e+00,
959,1.440000e+00,
960,1.360000e+00,
961,-1.200000e+00,
962,1.360000e+00,
963,-1.200000e+00,
964,-1.120000e+00,
965,1.280000e+00,
966,-1.120000e+00,
967,1.280000e+00,
968,1.200000e+00,
969,-1.120000e+00,
970,1.200000e+00,
971,-1.040000e+00,
972,-1.040000e+00,
973,1.200000e+00,
974,1.200000e+00,
975,-1.120000e+00,
976,1.200000e+00,
977,-1.120000e+00,
978,-1.120000e+00,
979,1.280000e+00,
980,1.280000e+00,
981,-1.200000e+00,
982,-1.200000e+00,
983,1.360000e+00,
984,1.360000e+00,
985,-1.280000e+00,
986,1.440000e+00,
987,-1.360000e+00,
988,-1.360000e+00,
989,1.520000e+00,
990,1.520000e+00,
991,-1.440000e+00,
992,-1.440000e+00,
993,1.600000e+00,
994,1.600000e+00,
995,-1.520000e+00,
996,1.600000e+00,
997,-1.520000e+00,
998,1.600000e+00,
999,-1.520000e+00,
1000,1.600000e+00,
1001,-1.520000e+00,
1002,-1.440000e+00,
1003,1.600000e+00,
1004,1.520000e+00,
1005,-1.440000e+00,
1006,1.520000e+00,
1007,-1.360000e+00,
1008,1.440000e+00,
1009,-1.280000e+00,
1010,-1.280000e+00,
1011,1.360000e+00,
1012,-1.200000e+00,
1013,1.360000e+00,
1014,1.280000e+00,
1015,-1.200000e+00,
1016,1.280000e+00,
1017,-1.120000e+00,
1018,-1.120000e+00,
1019,1.200000e+00,
1020,-1.120000e+00,
1021,1.200000e+00,
1022,1.200000e+00,
1023,-1.120000e+00,
1024,1.200000e+00,
1025,-1.120000e+00,
1026,-1.120000e+00,
1027,1.280000e+00,
1028,-1.120000e+00,
1029,1.280000e+00,
1030,1.280000e+00,
1031,-1.200000e+00,
1032,-1.200000e+00,
1033,1.360000e+00,
1034,1.360000e+00,
1035,-1.280000e+00,
1036,-1.280000e+00,
1037,1.440000e+00,
1038,-1.360000e+00,
1039,1.520000e+00,
1040,1.520000e+00,
1041,-1.440000e+00,
1042,-1.440000e+00,
1043,1.600000e+00,
1044,-1.440000e+00,
1045,1.600000e+00,
1046,-1.440000e+00,
1047,1.600000e+00,
1048,-1.440000e+00,
1049,1.600000e+00,
1050,1.600000e+00,
1051,-1.440000e+00,
1052,1.520000e+00,
1053,-1.440000e+00,
1054,1.520000e+00,
1055,-1.440000e+00,
1056,-1.360000e+00,
1057,1.520000e+00,
1058,1.440000e+00,
1059,-1.360000e+00,
1060,-1.280000e+00,
1061,1.440000e+00,
1062,1.360000e+00,
1063,-1.280000e+00,
1064,-1.200000e+00,
1065,1.360000e+00,
1066,-1.200000e+00,
1067,1.280000e+00,
1068,1.280000e+00,
1069,-1.120000e+00,
1070,1.280000e+00,
1071,-1.120000e+00,
1072,-1.120000e+00,
1073,1.200000e+00,
1074,-1.120000e+00,
1075,1.280000e+00,
1076,-1.120000e+00,
