Esp8/data/con.csv

X,CH1,Start,Increment,
Sequence,Volt,-1.932000e-03,2.760000e-06,
0,-2.880000e+00,
1,-2.720000e+00,
2,-2.880000e+00,
3,-2.720000e+00,
4,-2.800000e+00,
5,-2.640000e+00,
6,-2.720000e+00,
7,-2.560000e+00,
8,-2.640000e+00,
9,-2.480000e+00,
10,-2.600000e+00,
11,-2.400000e+00,
12,-2.480000e+00,
13,-2.320000e+00,
14,-2.400000e+00,
15,-2.200000e+00,
16,-2.320000e+00,
17,-2.120000e+00,
18,-2.200000e+00,
19,-2.040000e+00,
20,-2.120000e+00,
21,-1.920000e+00,
22,-2.040000e+00,
23,-1.840000e+00,
24,-1.920000e+00,
25,-1.720000e+00,
26,-1.800000e+00,
27,-1.640000e+00,
28,-1.680000e+00,
29,-1.520000e+00,
30,-1.600000e+00,
31,-1.400000e+00,
32,-1.480000e+00,
33,-1.280000e+00,
34,-1.360000e+00,
35,-1.160000e+00,
36,-1.240000e+00,
37,-1.040000e+00,
38,-1.120000e+00,
39,-9.200000e-01,
40,-1.000000e+00,
41,-8.000000e-01,
42,-8.800000e-01,
43,-6.800000e-01,
44,-7.600000e-01,
45,-5.600000e-01,
46,-6.400000e-01,
47,-4.400000e-01,
48,-4.800000e-01,
49,-2.800000e-01,
50,-3.600000e-01,
51,-1.600000e-01,
52,-2.400000e-01,
53,-4.000000e-02,
54,-1.200000e-01,
55,1.200000e-01,
56,4.000000e-02,
57,2.400000e-01,
58,1.600000e-01,
59,3.600000e-01,
60,2.800000e-01,
61,4.800000e-01,
62,4.000000e-01,
63,6.000000e-01,
64,5.200000e-01,
65,7.200000e-01,
66,6.400000e-01,
67,8.800000e-01,
68,7.600000e-01,
69,1.000000e+00,
70,8.800000e-01,
71,1.120000e+00,
72,1.040000e+00,
73,1.200000e+00,
74,1.160000e+00,
75,1.360000e+00,
76,1.240000e+00,
77,1.480000e+00,
78,1.360000e+00,
79,1.600000e+00,
80,1.480000e+00,
81,1.680000e+00,
82,1.600000e+00,
83,1.800000e+00,
84,1.720000e+00,
85,1.880000e+00,
86,1.840000e+00,
87,2.000000e+00,
88,1.920000e+00,
89,2.120000e+00,
90,2.040000e+00,
91,2.200000e+00,
92,2.120000e+00,
93,2.280000e+00,
94,2.200000e+00,
95,2.400000e+00,
96,2.280000e+00,
97,2.480000e+00,
98,2.400000e+00,
99,2.560000e+00,
100,2.480000e+00,
101,2.640000e+00,
102,2.560000e+00,
103,2.720000e+00,
104,2.640000e+00,
105,2.800000e+00,
106,2.720000e+00,
107,2.840000e+00,
108,2.760000e+00,
109,2.920000e+00,
110,2.840000e+00,
111,2.960000e+00,
112,2.880000e+00,
113,3.040000e+00,
114,2.960000e+00,
115,3.080000e+00,
116,3.000000e+00,
117,3.120000e+00,
118,3.040000e+00,
119,3.160000e+00,
120,3.080000e+00,
121,3.200000e+00,
122,3.120000e+00,
123,3.240000e+00,
124,3.160000e+00,
125,3.240000e+00,
126,3.160000e+00,
127,3.280000e+00,
128,3.200000e+00,
129,3.280000e+00,
130,3.200000e+00,
131,3.320000e+00,
132,3.240000e+00,
133,3.320000e+00,
134,3.240000e+00,
135,3.320000e+00,
136,3.240000e+00,
137,3.320000e+00,
138,3.240000e+00,
139,3.320000e+00,
140,3.320000e+00,
141,3.200000e+00,
142,3.280000e+00,
143,3.160000e+00,
144,3.280000e+00,
145,3.160000e+00,
146,3.240000e+00,
147,3.120000e+00,
148,3.240000e+00,
149,3.120000e+00,
150,3.200000e+00,
151,3.080000e+00,
152,3.160000e+00,
153,3.040000e+00,
154,3.120000e+00,
155,3.000000e+00,
156,3.080000e+00,
157,2.960000e+00,
158,3.000000e+00,
159,2.880000e+00,
160,2.960000e+00,
161,2.800000e+00,
162,2.920000e+00,
163,2.760000e+00,
164,2.840000e+00,
165,2.680000e+00,
166,2.760000e+00,
167,2.600000e+00,
168,2.680000e+00,
169,2.520000e+00,
170,2.640000e+00,
171,2.480000e+00,
172,2.520000e+00,
173,2.360000e+00,
174,2.440000e+00,
175,2.280000e+00,
176,2.360000e+00,
177,2.200000e+00,
178,2.280000e+00,
179,2.120000e+00,
180,2.200000e+00,
181,2.000000e+00,
182,2.080000e+00,
183,1.920000e+00,
184,2.000000e+00,
185,1.800000e+00,
186,1.880000e+00,
187,1.680000e+00,
188,1.800000e+00,
189,1.600000e+00,
190,1.680000e+00,
191,1.480000e+00,
192,1.560000e+00,
193,1.360000e+00,
194,1.440000e+00,
195,1.240000e+00,
196,1.320000e+00,
197,1.120000e+00,
198,1.200000e+00,
199,1.000000e+00,
200,1.120000e+00,
201,8.800000e-01,
202,1.000000e+00,
203,7.600000e-01,
204,8.400000e-01,
205,6.400000e-01,
206,7.200000e-01,
207,5.200000e-01,
208,6.000000e-01,
209,3.600000e-01,
210,4.800000e-01,
211,2.400000e-01,
212,3.600000e-01,
213,1.200000e-01,
214,2.000000e-01,
215,-4.000000e-02,
216,8.000000e-02,
217,-1.200000e-01,
218,-4.000000e-02,
219,-2.800000e-01,
220,-2.000000e-01,
221,-4.000000e-01,
222,-3.200000e-01,
223,-5.600000e-01,
224,-4.400000e-01,
225,-6.400000e-01,
226,-5.600000e-01,
227,-7.600000e-01,
228,-6.800000e-01,
229,-9.200000e-01,
230,-8.000000e-01,
231,-1.000000e+00,
232,-9.200000e-01,
233,-1.160000e+00,
234,-1.040000e+00,
235,-1.240000e+00,
236,-1.160000e+00,
237,-1.360000e+00,
238,-1.280000e+00,
239,-1.480000e+00,
240,-1.400000e+00,
241,-1.600000e+00,
242,-1.520000e+00,
243,-1.720000e+00,
244,-1.640000e+00,
245,-1.840000e+00,
246,-1.720000e+00,
247,-1.920000e+00,
248,-1.840000e+00,
249,-2.040000e+00,
250,-1.960000e+00,
251,-2.120000e+00,
252,-2.040000e+00,
253,-2.240000e+00,
254,-2.160000e+00,
255,-2.320000e+00,
256,-2.240000e+00,
257,-2.400000e+00,
258,-2.320000e+00,
259,-2.520000e+00,
260,-2.400000e+00,
261,-2.600000e+00,
262,-2.520000e+00,
263,-2.680000e+00,
264,-2.600000e+00,
265,-2.760000e+00,
266,-2.640000e+00,
267,-2.800000e+00,
268,-2.720000e+00,
269,-2.880000e+00,
270,-2.800000e+00,
271,-2.960000e+00,
272,-2.840000e+00,
273,-3.000000e+00,
274,-2.920000e+00,
275,-3.080000e+00,
276,-2.960000e+00,
277,-3.120000e+00,
278,-3.040000e+00,
279,-3.160000e+00,
280,-3.080000e+00,
281,-3.200000e+00,
282,-3.080000e+00,
283,-3.240000e+00,
284,-3.240000e+00,
285,-3.160000e+00,
286,-3.280000e+00,
287,-3.160000e+00,
288,-3.200000e+00,
289,-3.320000e+00,
290,-3.200000e+00,
291,-3.320000e+00,
292,-3.240000e+00,
293,-3.320000e+00,
294,-3.240000e+00,
295,-3.360000e+00,
296,-3.240000e+00,
297,-3.360000e+00,
298,-3.240000e+00,
299,-3.360000e+00,
300,-3.240000e+00,
301,-3.360000e+00,
302,-3.320000e+00,
303,-3.240000e+00,
304,-3.320000e+00,
305,-3.200000e+00,
306,-3.280000e+00,
307,-3.160000e+00,
308,-3.280000e+00,
309,-3.120000e+00,
310,-3.240000e+00,
311,-3.120000e+00,
312,-3.200000e+00,
313,-3.080000e+00,
314,-3.160000e+00,
315,-3.040000e+00,
316,-3.120000e+00,
317,-2.960000e+00,
318,-3.080000e+00,
319,-2.920000e+00,
320,-3.040000e+00,
321,-2.880000e+00,
322,-2.960000e+00,
323,-2.800000e+00,
324,-2.920000e+00,
325,-2.760000e+00,
326,-2.840000e+00,
327,-2.680000e+00,
328,-2.760000e+00,
329,-2.600000e+00,
330,-2.680000e+00,
331,-2.520000e+00,
332,-2.600000e+00,
333,-2.440000e+00,
334,-2.520000e+00,
335,-2.360000e+00,
336,-2.440000e+00,
337,-2.280000e+00,
338,-2.360000e+00,
339,-2.160000e+00,
340,-2.240000e+00,
341,-2.080000e+00,
342,-2.160000e+00,
343,-2.000000e+00,
344,-2.080000e+00,
345,-1.880000e+00,
346,-1.960000e+00,
347,-1.760000e+00,
348,-1.840000e+00,
349,-1.680000e+00,
350,-1.760000e+00,
351,-1.560000e+00,
352,-1.640000e+00,
353,-1.440000e+00,
354,-1.520000e+00,
355,-1.320000e+00,
356,-1.440000e+00,
357,-1.200000e+00,
358,-1.280000e+00,
359,-1.080000e+00,
360,-1.200000e+00,
361,-9.600000e-01,
362,-1.080000e+00,
363,-8.400000e-01,
364,-9.600000e-01,
365,-7.200000e-01,
366,-8.000000e-01,
367,-6.000000e-01,
368,-6.800000e-01,
369,-4.800000e-01,
370,-5.600000e-01,
371,-3.600000e-01,
372,-4.400000e-01,
373,-2.400000e-01,
374,-3.200000e-01,
375,-8.000000e-02,
376,-1.600000e-01,
377,4.000000e-02,
378,-8.000000e-02,
379,1.600000e-01,
380,8.000000e-02,
381,3.200000e-01,
382,2.000000e-01,
383,4.400000e-01,
384,3.200000e-01,
385,5.600000e-01,
386,4.800000e-01,
387,6.800000e-01,
388,6.000000e-01,
389,8.000000e-01,
390,7.200000e-01,
391,9.200000e-01,
392,8.400000e-01,
393,1.080000e+00,
394,9.600000e-01,
395,1.160000e+00,
396,1.080000e+00,
397,1.280000e+00,
398,1.200000e+00,
399,1.400000e+00,
400,1.320000e+00,
401,1.520000e+00,
402,1.440000e+00,
403,1.640000e+00,
404,1.560000e+00,
405,1.720000e+00,
406,1.680000e+00,
407,1.840000e+00,
408,1.760000e+00,
409,1.960000e+00,
410,1.880000e+00,
411,2.040000e+00,
412,2.000000e+00,
413,2.160000e+00,
414,2.080000e+00,
415,2.240000e+00,
416,2.160000e+00,
417,2.360000e+00,
418,2.240000e+00,
419,2.440000e+00,
420,2.320000e+00,
421,2.520000e+00,
422,2.440000e+00,
423,2.600000e+00,
424,2.520000e+00,
425,2.680000e+00,
426,2.600000e+00,
427,2.760000e+00,
428,2.680000e+00,
429,2.800000e+00,
430,2.760000e+00,
431,2.880000e+00,
432,2.800000e+00,
433,2.960000e+00,
434,2.880000e+00,
435,3.000000e+00,
436,2.920000e+00,
437,3.040000e+00,
438,2.960000e+00,
439,3.080000e+00,
440,3.000000e+00,
441,3.160000e+00,
442,3.080000e+00,
443,3.200000e+00,
444,3.080000e+00,
445,3.240000e+00,
446,3.120000e+00,
447,3.240000e+00,
448,3.160000e+00,
449,3.280000e+00,
450,3.280000e+00,
451,3.160000e+00,
452,3.200000e+00,
453,3.320000e+00,
454,3.200000e+00,
455,3.320000e+00,
456,3.240000e+00,
457,3.320000e+00,
458,3.240000e+00,
459,3.320000e+00,
460,3.240000e+00,
461,3.320000e+00,
462,3.320000e+00,
463,3.200000e+00,
464,3.320000e+00,
465,3.200000e+00,
466,3.280000e+00,
467,3.160000e+00,
468,3.240000e+00,
469,3.160000e+00,
470,3.240000e+00,
471,3.120000e+00,
472,3.200000e+00,
473,3.080000e+00,
474,3.160000e+00,
475,3.080000e+00,
476,3.160000e+00,
477,3.000000e+00,
478,3.080000e+00,
479,2.960000e+00,
480,3.040000e+00,
481,2.920000e+00,
482,3.000000e+00,
483,2.840000e+00,
484,2.920000e+00,
485,2.800000e+00,
486,2.880000e+00,
487,2.720000e+00,
488,2.800000e+00,
489,2.640000e+00,
490,2.720000e+00,
491,2.560000e+00,
492,2.640000e+00,
493,2.480000e+00,
494,2.560000e+00,
495,2.400000e+00,
496,2.480000e+00,
497,2.320000e+00,
498,2.400000e+00,
499,2.240000e+00,
500,2.320000e+00,
501,2.160000e+00,
502,2.240000e+00,
503,2.040000e+00,
504,2.120000e+00,
505,1.960000e+00,
506,2.040000e+00,
507,1.840000e+00,
508,1.920000e+00,
509,1.760000e+00,
510,1.840000e+00,
511,1.640000e+00,
512,1.720000e+00,
513,1.520000e+00,
514,1.600000e+00,
515,1.400000e+00,
516,1.480000e+00,
517,1.280000e+00,
518,1.360000e+00,
519,1.160000e+00,
520,1.240000e+00,
521,1.040000e+00,
522,1.160000e+00,
523,9.200000e-01,
524,1.040000e+00,
525,8.000000e-01,
526,9.200000e-01,
527,6.800000e-01,
528,8.000000e-01,
529,5.600000e-01,
530,6.400000e-01,
531,4.400000e-01,
532,5.200000e-01,
533,3.200000e-01,
534,4.000000e-01,
535,2.000000e-01,
536,2.800000e-01,
537,4.000000e-02,
538,1.200000e-01,
539,-8.000000e-02,
540,0.000000e+00,
541,-2.000000e-01,
542,-1.200000e-01,
543,-3.200000e-01,
544,-2.400000e-01,
545,-4.800000e-01,
546,-4.000000e-01,
547,-6.000000e-01,
548,-5.200000e-01,
549,-7.200000e-01,
550,-6.400000e-01,
551,-8.400000e-01,
552,-7.600000e-01,
553,-9.600000e-01,
554,-8.800000e-01,
555,-1.080000e+00,
556,-1.000000e+00,
557,-1.200000e+00,
558,-1.120000e+00,
559,-1.320000e+00,
560,-1.240000e+00,
561,-1.440000e+00,
562,-1.360000e+00,
563,-1.560000e+00,
564,-1.480000e+00,
565,-1.680000e+00,
566,-1.600000e+00,
567,-1.760000e+00,
568,-1.680000e+00,
569,-1.880000e+00,
570,-1.800000e+00,
571,-2.000000e+00,
572,-1.920000e+00,
573,-2.080000e+00,
574,-2.000000e+00,
575,-2.200000e+00,
576,-2.080000e+00,
577,-2.280000e+00,
578,-2.200000e+00,
579,-2.360000e+00,
580,-2.280000e+00,
581,-2.480000e+00,
582,-2.360000e+00,
583,-2.560000e+00,
584,-2.480000e+00,
585,-2.640000e+00,
586,-2.560000e+00,
587,-2.720000e+00,
588,-2.640000e+00,
589,-2.800000e+00,
590,-2.680000e+00,
591,-2.840000e+00,
592,-2.760000e+00,
593,-2.920000e+00,
594,-2.840000e+00,
595,-3.000000e+00,
596,-2.880000e+00,
597,-3.040000e+00,
598,-2.960000e+00,
599,-3.080000e+00,
600,-3.000000e+00,
601,-3.120000e+00,
602,-3.040000e+00,
603,-3.160000e+00,
604,-3.080000e+00,
605,-3.200000e+00,
606,-3.120000e+00,
607,-3.240000e+00,
608,-3.160000e+00,
609,-3.280000e+00,
610,-3.280000e+00,
611,-3.200000e+00,
612,-3.200000e+00,
613,-3.320000e+00,
614,-3.240000e+00,
615,-3.320000e+00,
616,-3.240000e+00,
617,-3.360000e+00,
618,-3.240000e+00,
619,-3.360000e+00,
620,-3.240000e+00,
621,-3.360000e+00,
622,-3.240000e+00,
623,-3.360000e+00,
624,-3.240000e+00,
625,-3.360000e+00,
626,-3.320000e+00,
627,-3.200000e+00,
628,-3.200000e+00,
629,-3.320000e+00,
630,-3.280000e+00,
631,-3.160000e+00,
632,-3.240000e+00,
633,-3.160000e+00,
634,-3.120000e+00,
635,-3.240000e+00,
636,-3.200000e+00,
637,-3.080000e+00,
638,-3.160000e+00,
639,-3.000000e+00,
640,-3.120000e+00,
641,-2.960000e+00,
642,-3.040000e+00,
643,-2.920000e+00,
644,-3.000000e+00,
645,-2.840000e+00,
646,-2.920000e+00,
647,-2.760000e+00,
648,-2.880000e+00,
649,-2.720000e+00,
650,-2.800000e+00,
651,-2.640000e+00,
652,-2.720000e+00,
653,-2.560000e+00,
654,-2.640000e+00,
655,-2.480000e+00,
656,-2.560000e+00,
657,-2.400000e+00,
658,-2.480000e+00,
659,-2.320000e+00,
660,-2.400000e+00,
661,-2.200000e+00,
662,-2.280000e+00,
663,-2.120000e+00,
664,-2.200000e+00,
665,-2.040000e+00,
666,-2.120000e+00,
667,-1.920000e+00,
668,-2.000000e+00,
669,-1.840000e+00,
670,-1.920000e+00,
671,-1.720000e+00,
672,-1.800000e+00,
673,-1.600000e+00,
674,-1.680000e+00,
675,-1.480000e+00,
676,-1.600000e+00,
677,-1.400000e+00,
678,-1.480000e+00,
679,-1.240000e+00,
680,-1.360000e+00,
681,-1.160000e+00,
682,-1.240000e+00,
683,-1.040000e+00,
684,-1.120000e+00,
685,-9.200000e-01,
686,-1.000000e+00,
687,-8.000000e-01,
688,-8.800000e-01,
689,-6.800000e-01,
690,-7.600000e-01,
691,-5.600000e-01,
692,-6.400000e-01,
693,-4.400000e-01,
694,-4.800000e-01,
695,-2.800000e-01,
696,-3.600000e-01,
697,-1.600000e-01,
698,-2.400000e-01,
699,-4.000000e-02,
700,-1.200000e-01,
701,1.200000e-01,
702,0.000000e+00,
703,2.400000e-01,
704,1.600000e-01,
705,3.600000e-01,
706,2.800000e-01,
707,4.800000e-01,
708,4.000000e-01,
709,6.400000e-01,
710,5.200000e-01,
711,7.600000e-01,
712,6.400000e-01,
713,8.800000e-01,
714,7.600000e-01,
715,1.000000e+00,
716,8.800000e-01,
717,1.120000e+00,
718,1.000000e+00,
719,1.240000e+00,
720,1.160000e+00,
721,1.360000e+00,
722,1.280000e+00,
723,1.480000e+00,
724,1.360000e+00,
725,1.600000e+00,
726,1.480000e+00,
727,1.680000e+00,
728,1.600000e+00,
729,1.800000e+00,
730,1.720000e+00,
731,1.920000e+00,
732,1.840000e+00,
733,2.000000e+00,
734,1.920000e+00,
735,2.120000e+00,
736,2.000000e+00,
737,2.200000e+00,
738,2.120000e+00,
739,2.280000e+00,
740,2.200000e+00,
741,2.400000e+00,
742,2.320000e+00,
743,2.480000e+00,
744,2.360000e+00,
745,2.560000e+00,
746,2.480000e+00,
747,2.640000e+00,
748,2.560000e+00,
749,2.720000e+00,
750,2.640000e+00,
751,2.760000e+00,
752,2.720000e+00,
753,2.840000e+00,
754,2.760000e+00,
755,2.920000e+00,
756,2.840000e+00,
757,2.960000e+00,
758,2.880000e+00,
759,3.040000e+00,
760,2.960000e+00,
761,3.080000e+00,
762,3.000000e+00,
763,3.120000e+00,
764,3.040000e+00,
765,3.160000e+00,
766,3.080000e+00,
767,3.200000e+00,
768,3.120000e+00,
769,3.240000e+00,
770,3.160000e+00,
771,3.240000e+00,
772,3.160000e+00,
773,3.280000e+00,
774,3.280000e+00,
775,3.200000e+00,
776,3.200000e+00,
777,3.320000e+00,
778,3.320000e+00,
779,3.200000e+00,
780,3.240000e+00,
781,3.320000e+00,
782,3.240000e+00,
783,3.320000e+00,
784,3.320000e+00,
785,3.200000e+00,
786,3.320000e+00,
787,3.200000e+00,
788,3.280000e+00,
789,3.160000e+00,
790,3.280000e+00,
791,3.160000e+00,
792,3.240000e+00,
793,3.120000e+00,
794,3.200000e+00,
795,3.080000e+00,
796,3.200000e+00,
797,3.080000e+00,
798,3.160000e+00,
799,3.040000e+00,
800,3.120000e+00,
801,3.000000e+00,
802,3.080000e+00,
803,2.920000e+00,
804,3.000000e+00,
805,2.880000e+00,
806,2.960000e+00,
807,2.800000e+00,
808,2.920000e+00,
809,2.760000e+00,
810,2.840000e+00,
811,2.680000e+00,
812,2.760000e+00,
813,2.600000e+00,
814,2.680000e+00,
815,2.560000e+00,
816,2.600000e+00,
817,2.440000e+00,
818,2.520000e+00,
819,2.360000e+00,
820,2.440000e+00,
821,2.280000e+00,
822,2.360000e+00,
823,2.200000e+00,
824,2.280000e+00,
825,2.080000e+00,
826,2.160000e+00,
827,2.000000e+00,
828,2.080000e+00,
829,1.880000e+00,
830,1.960000e+00,
831,1.800000e+00,
832,1.880000e+00,
833,1.680000e+00,
834,1.760000e+00,
835,1.600000e+00,
836,1.680000e+00,
837,1.480000e+00,
838,1.560000e+00,
839,1.360000e+00,
840,1.440000e+00,
841,1.200000e+00,
842,1.320000e+00,
843,1.120000e+00,
844,1.200000e+00,
845,1.000000e+00,
846,1.080000e+00,
847,8.800000e-01,
848,9.600000e-01,
849,7.600000e-01,
850,8.400000e-01,
851,6.000000e-01,
852,7.200000e-01,
853,4.800000e-01,
854,6.000000e-01,
855,3.600000e-01,
856,4.400000e-01,
857,2.400000e-01,
858,3.200000e-01,
859,8.000000e-02,
860,2.000000e-01,
861,-4.000000e-02,
862,8.000000e-02,
863,-1.600000e-01,
864,-8.000000e-02,
865,-2.800000e-01,
866,-2.000000e-01,
867,-4.000000e-01,
868,-3.200000e-01,
869,-5.200000e-01,
870,-4.400000e-01,
871,-6.800000e-01,
872,-5.600000e-01,
873,-8.000000e-01,
874,-7.200000e-01,
875,-9.200000e-01,
876,-8.000000e-01,
877,-1.040000e+00,
878,-9.600000e-01,
879,-1.160000e+00,
880,-1.080000e+00,
881,-1.280000e+00,
882,-1.200000e+00,
883,-1.400000e+00,
884,-1.280000e+00,
885,-1.520000e+00,
886,-1.400000e+00,
887,-1.640000e+00,
888,-1.520000e+00,
889,-1.720000e+00,
890,-1.640000e+00,
891,-1.840000e+00,
892,-1.760000e+00,
893,-1.920000e+00,
894,-1.840000e+00,
895,-2.040000e+00,
896,-1.960000e+00,
897,-2.120000e+00,
898,-2.040000e+00,
899,-2.240000e+00,
900,-2.160000e+00,
901,-2.320000e+00,
902,-2.240000e+00,
903,-2.400000e+00,
904,-2.320000e+00,
905,-2.520000e+00,
906,-2.440000e+00,
907,-2.600000e+00,
908,-2.520000e+00,
909,-2.680000e+00,
910,-2.600000e+00,
911,-2.760000e+00,
912,-2.640000e+00,
913,-2.800000e+00,
914,-2.720000e+00,
915,-2.880000e+00,
916,-2.800000e+00,
917,-2.960000e+00,
918,-2.840000e+00,
919,-3.000000e+00,
920,-2.920000e+00,
921,-3.080000e+00,
922,-3.000000e+00,
923,-3.120000e+00,
924,-3.040000e+00,
925,-3.160000e+00,
926,-3.080000e+00,
927,-3.200000e+00,
928,-3.120000e+00,
929,-3.240000e+00,
930,-3.240000e+00,
931,-3.160000e+00,
932,-3.160000e+00,
933,-3.280000e+00,
934,-3.200000e+00,
935,-3.320000e+00,
936,-3.320000e+00,
937,-3.200000e+00,
938,-3.320000e+00,
939,-3.240000e+00,
940,-3.240000e+00,
941,-3.360000e+00,
942,-3.360000e+00,
943,-3.240000e+00,
944,-3.360000e+00,
945,-3.240000e+00,
946,-3.240000e+00,
947,-3.360000e+00,
948,-3.240000e+00,
949,-3.320000e+00,
950,-3.320000e+00,
951,-3.200000e+00,
952,-3.280000e+00,
953,-3.160000e+00,
954,-3.280000e+00,
955,-3.160000e+00,
956,-3.240000e+00,
957,-3.120000e+00,
958,-3.200000e+00,
959,-3.080000e+00,
960,-3.160000e+00,
961,-3.040000e+00,
962,-3.120000e+00,
963,-3.000000e+00,
964,-3.080000e+00,
965,-2.920000e+00,
966,-3.040000e+00,
967,-2.880000e+00,
968,-2.960000e+00,
969,-2.800000e+00,
970,-2.920000e+00,
971,-2.760000e+00,
972,-2.840000e+00,
973,-2.680000e+00,
974,-2.760000e+00,
975,-2.600000e+00,
976,-2.680000e+00,
977,-2.520000e+00,
978,-2.600000e+00,
979,-2.440000e+00,
980,-2.520000e+00,
981,-2.360000e+00,
982,-2.440000e+00,
983,-2.240000e+00,
984,-2.360000e+00,
985,-2.160000e+00,
986,-2.240000e+00,
987,-2.080000e+00,
988,-2.160000e+00,
989,-1.960000e+00,
990,-2.080000e+00,
991,-1.880000e+00,
992,-1.960000e+00,
993,-1.760000e+00,
994,-1.880000e+00,
995,-1.680000e+00,
996,-1.760000e+00,
997,-1.560000e+00,
998,-1.640000e+00,
999,-1.440000e+00,
1000,-1.520000e+00,
1001,-1.320000e+00,
1002,-1.400000e+00,
1003,-1.200000e+00,
1004,-1.320000e+00,
1005,-1.080000e+00,
1006,-1.200000e+00,
1007,-1.000000e+00,
1008,-1.040000e+00,
1009,-8.400000e-01,
1010,-9.200000e-01,
1011,-7.200000e-01,
1012,-8.000000e-01,
1013,-6.000000e-01,
1014,-6.800000e-01,
1015,-4.800000e-01,
1016,-5.600000e-01,
1017,-3.600000e-01,
1018,-4.400000e-01,
1019,-2.400000e-01,
1020,-2.800000e-01,
1021,-8.000000e-02,
1022,-1.600000e-01,
1023,4.000000e-02,
1024,-4.000000e-02,
1025,1.600000e-01,
1026,8.000000e-02,
1027,3.200000e-01,
1028,2.000000e-01,
1029,4.400000e-01,
1030,3.600000e-01,
1031,5.600000e-01,
1032,4.800000e-01,
1033,6.800000e-01,
1034,6.000000e-01,
1035,8.000000e-01,
1036,7.200000e-01,
1037,9.600000e-01,
1038,8.400000e-01,
1039,1.040000e+00,
1040,9.600000e-01,
1041,1.160000e+00,
1042,1.080000e+00,
1043,1.280000e+00,
1044,1.200000e+00,
1045,1.400000e+00,
1046,1.320000e+00,
1047,1.520000e+00,
1048,1.440000e+00,
1049,1.640000e+00,
1050,1.560000e+00,
1051,1.760000e+00,
1052,1.680000e+00,
1053,1.840000e+00,
1054,1.760000e+00,
1055,1.960000e+00,
1056,1.880000e+00,
1057,2.040000e+00,
1058,2.000000e+00,
1059,2.160000e+00,
1060,2.080000e+00,
1061,2.240000e+00,
1062,2.160000e+00,
1063,2.360000e+00,
1064,2.280000e+00,
1065,2.440000e+00,
1066,2.360000e+00,
1067,2.520000e+00,
1068,2.440000e+00,
1069,2.600000e+00,
1070,2.520000e+00,
1071,2.680000e+00,
1072,2.600000e+00,
1073,2.760000e+00,
1074,2.680000e+00,
1075,2.840000e+00,
1076,2.720000e+00,
1077,2.880000e+00,
1078,2.800000e+00,
