Esp8/data/senza2.csv

X,CH1,Start,Increment,
Sequence,Volt,-5.600002e-02,1.000000e-03,
0,-2.400000e-01,
1,-8.000000e-02,
2,-2.400000e-01,
3,-8.000000e-02,
4,-2.400000e-01,
5,-8.000000e-02,
6,-8.000000e-02,
7,-3.200000e-01,
8,-2.400000e-01,
9,-8.000000e-02,
10,-2.400000e-01,
11,-8.000000e-02,
12,-2.400000e-01,
13,-8.000000e-02,
14,-8.000000e-02,
15,-3.200000e-01,
16,-2.400000e-01,
17,-8.000000e-02,
18,-2.400000e-01,
19,-8.000000e-02,
20,-2.400000e-01,
21,-8.000000e-02,
22,-2.400000e-01,
23,-8.000000e-02,
24,-2.400000e-01,
25,-8.000000e-02,
26,-8.000000e-02,
27,-3.200000e-01,
28,-8.000000e-02,
29,-3.200000e-01,
30,-2.400000e-01,
31,-8.000000e-02,
32,-2.400000e-01,
33,-8.000000e-02,
34,-2.400000e-01,
35,-8.000000e-02,
36,-2.400000e-01,
37,-8.000000e-02,
38,-2.400000e-01,
39,-8.000000e-02,
40,-2.400000e-01,
41,-8.000000e-02,
42,-2.400000e-01,
43,-8.000000e-02,
44,-2.400000e-01,
45,-8.000000e-02,
46,-2.400000e-01,
47,-8.000000e-02,
48,-2.400000e-01,
49,-8.000000e-02,
50,-2.400000e-01,
51,8.000000e-02,
52,1.600000e-01,
53,-1.600000e-01,
54,3.200000e-01,
55,-4.000000e-01,
56,-1.440000e+00,
57,1.120000e+00,
58,-2.000000e+00,
59,1.520000e+00,
60,-2.560000e+00,
61,1.840000e+00,
62,-3.040000e+00,
63,2.160000e+00,
64,-3.600000e+00,
65,2.560000e+00,
66,2.880000e+00,
67,-4.320000e+00,
68,3.200000e+00,
69,-4.800000e+00,
70,-5.200000e+00,
71,3.520000e+00,
72,-5.440000e+00,
73,3.680000e+00,
74,-5.680000e+00,
75,3.920000e+00,
76,-6.000000e+00,
77,4.160000e+00,
78,-6.240000e+00,
79,4.320000e+00,
80,4.480000e+00,
81,-6.640000e+00,
82,4.640000e+00,
83,-6.880000e+00,
84,-7.040000e+00,
85,4.880000e+00,
86,-7.200000e+00,
87,5.040000e+00,
88,-7.360000e+00,
89,5.200000e+00,
90,-7.520000e+00,
91,5.280000e+00,
92,5.360000e+00,
93,-7.600000e+00,
94,5.440000e+00,
95,-7.680000e+00,
96,5.520000e+00,
97,-7.680000e+00,
98,5.600000e+00,
99,-7.760000e+00,
100,-7.760000e+00,
101,5.680000e+00,
102,-7.680000e+00,
103,5.680000e+00,
104,-7.680000e+00,
105,5.680000e+00,
106,5.680000e+00,
107,-7.680000e+00,
108,5.680000e+00,
109,-7.600000e+00,
110,5.760000e+00,
111,-7.600000e+00,
112,-7.520000e+00,
113,5.760000e+00,
114,-7.520000e+00,
115,5.760000e+00,
116,5.760000e+00,
117,-7.440000e+00,
118,5.760000e+00,
119,-7.440000e+00,
120,5.760000e+00,
121,-7.360000e+00,
122,-7.280000e+00,
123,5.760000e+00,
124,-7.280000e+00,
125,5.840000e+00,
126,5.840000e+00,
127,-7.280000e+00,
128,5.840000e+00,
129,-7.200000e+00,
130,5.840000e+00,
131,-7.120000e+00,
132,-7.120000e+00,
133,5.840000e+00,
134,-7.040000e+00,
135,5.840000e+00,
136,5.840000e+00,
137,-6.960000e+00,
138,5.840000e+00,
139,-6.960000e+00,
140,-6.960000e+00,
141,5.840000e+00,
142,-6.880000e+00,
143,5.840000e+00,
144,-6.800000e+00,
145,5.840000e+00,
146,5.840000e+00,
147,-6.800000e+00,
148,5.840000e+00,
149,-6.720000e+00,
150,-6.720000e+00,
151,5.840000e+00,
152,-6.720000e+00,
153,5.840000e+00,
154,5.840000e+00,
155,-6.640000e+00,
156,5.840000e+00,
157,-6.560000e+00,
158,-6.560000e+00,
159,5.840000e+00,
160,-6.560000e+00,
161,5.840000e+00,
162,5.840000e+00,
163,-6.480000e+00,
164,5.840000e+00,
165,-6.400000e+00,
166,5.840000e+00,
167,-6.400000e+00,
168,-6.400000e+00,
169,5.840000e+00,
170,-6.320000e+00,
171,5.840000e+00,
172,5.920000e+00,
173,-6.320000e+00,
174,5.840000e+00,
175,-6.240000e+00,
176,-6.240000e+00,
177,5.920000e+00,
178,-6.160000e+00,
179,5.920000e+00,
180,5.920000e+00,
181,-6.160000e+00,
182,-6.080000e+00,
183,5.920000e+00,
184,-6.080000e+00,
185,5.840000e+00,
186,-6.000000e+00,
187,5.920000e+00,
188,5.840000e+00,
189,-5.840000e+00,
190,5.600000e+00,
191,-5.520000e+00,
192,-5.120000e+00,
193,4.960000e+00,
194,-4.560000e+00,
195,4.400000e+00,
196,3.840000e+00,
197,-3.600000e+00,
198,3.200000e+00,
199,-3.040000e+00,
200,-2.480000e+00,
201,2.560000e+00,
202,-2.000000e+00,
203,2.160000e+00,
204,1.760000e+00,
205,-1.440000e+00,
206,1.440000e+00,
207,-1.120000e+00,
208,-8.800000e-01,
209,1.040000e+00,
210,-8.000000e-01,
211,8.000000e-01,
212,-6.400000e-01,
213,7.200000e-01,
214,6.400000e-01,
215,-6.400000e-01,
216,-5.600000e-01,
217,6.400000e-01,
218,-5.600000e-01,
219,6.400000e-01,
220,5.600000e-01,
221,-6.400000e-01,
222,-5.600000e-01,
223,6.400000e-01,
224,-5.600000e-01,
225,6.400000e-01,
226,-5.600000e-01,
227,6.400000e-01,
228,6.400000e-01,
229,-6.400000e-01,
230,6.400000e-01,
231,-6.400000e-01,
232,6.400000e-01,
233,-6.400000e-01,
234,-6.400000e-01,
235,6.400000e-01,
236,-6.400000e-01,
237,7.200000e-01,
238,6.400000e-01,
239,-6.400000e-01,
240,7.200000e-01,
241,-6.400000e-01,
242,7.200000e-01,
243,-7.200000e-01,
244,-7.200000e-01,
245,7.200000e-01,
246,7.200000e-01,
247,-7.200000e-01,
248,-7.200000e-01,
249,8.000000e-01,
250,-7.200000e-01,
251,8.000000e-01,
252,-7.200000e-01,
253,8.000000e-01,
254,8.800000e-01,
255,-8.000000e-01,
256,-8.000000e-01,
257,8.800000e-01,
258,-8.000000e-01,
259,8.800000e-01,
260,-8.000000e-01,
261,9.600000e-01,
262,9.600000e-01,
263,-8.000000e-01,
264,-8.800000e-01,
265,1.040000e+00,
266,-8.800000e-01,
267,9.600000e-01,
268,-8.800000e-01,
269,1.040000e+00,
270,1.040000e+00,
271,-8.800000e-01,
272,1.040000e+00,
273,-9.600000e-01,
274,-9.600000e-01,
275,1.120000e+00,
276,-9.600000e-01,
277,1.120000e+00,
278,1.120000e+00,
279,-9.600000e-01,
280,-9.600000e-01,
281,1.200000e+00,
282,-1.040000e+00,
283,1.200000e+00,
284,1.200000e+00,
285,-1.120000e+00,
286,1.280000e+00,
287,-1.120000e+00,
288,1.280000e+00,
289,-1.120000e+00,
290,-1.120000e+00,
291,1.360000e+00,
292,-1.200000e+00,
293,1.440000e+00,
294,-1.200000e+00,
295,1.440000e+00,
296,1.440000e+00,
297,-1.280000e+00,
298,1.520000e+00,
299,-1.360000e+00,
300,-1.360000e+00,
301,1.600000e+00,
302,1.680000e+00,
303,-1.520000e+00,
304,1.760000e+00,
305,-1.600000e+00,
306,1.920000e+00,
307,-1.680000e+00,
308,-1.840000e+00,
309,2.080000e+00,
310,2.320000e+00,
311,-2.080000e+00,
312,2.560000e+00,
313,-2.400000e+00,
314,-2.800000e+00,
315,3.040000e+00,
316,-3.360000e+00,
317,3.520000e+00,
318,4.240000e+00,
319,-4.400000e+00,
320,5.280000e+00,
321,-5.600000e+00,
322,5.840000e+00,
323,-6.560000e+00,
324,-6.560000e+00,
325,5.840000e+00,
326,-6.560000e+00,
327,5.840000e+00,
328,5.840000e+00,
329,-6.480000e+00,
330,5.840000e+00,
331,-6.480000e+00,
332,5.840000e+00,
333,-6.400000e+00,
334,-6.400000e+00,
335,5.840000e+00,
336,-6.320000e+00,
337,5.840000e+00,
338,5.840000e+00,
339,-6.320000e+00,
340,-6.240000e+00,
341,5.920000e+00,
342,-6.240000e+00,
343,5.840000e+00,
344,-6.240000e+00,
345,5.840000e+00,
346,5.840000e+00,
347,-6.160000e+00,
348,-6.160000e+00,
349,5.920000e+00,
350,-6.080000e+00,
351,5.840000e+00,
352,-6.000000e+00,
353,5.920000e+00,
354,5.840000e+00,
355,-5.920000e+00,
356,5.680000e+00,
357,-5.600000e+00,
358,-5.200000e+00,
359,5.120000e+00,
360,-4.640000e+00,
361,4.480000e+00,
362,3.920000e+00,
363,-3.760000e+00,
364,3.360000e+00,
365,-3.200000e+00,
366,-2.560000e+00,
367,2.640000e+00,
368,-2.080000e+00,
369,2.240000e+00,
370,-1.440000e+00,
371,1.760000e+00,
372,1.440000e+00,
373,-1.120000e+00,
374,-8.800000e-01,
375,1.040000e+00,
376,-8.000000e-01,
377,8.000000e-01,
378,-6.400000e-01,
379,7.200000e-01,
380,6.400000e-01,
381,-6.400000e-01,
382,-6.400000e-01,
383,6.400000e-01,
384,-5.600000e-01,
385,5.600000e-01,
386,-5.600000e-01,
387,5.600000e-01,
388,5.600000e-01,
389,-5.600000e-01,
390,-5.600000e-01,
391,6.400000e-01,
392,-5.600000e-01,
393,5.600000e-01,
394,6.400000e-01,
395,-6.400000e-01,
396,6.400000e-01,
397,-6.400000e-01,
398,6.400000e-01,
399,-6.400000e-01,
400,-6.400000e-01,
401,6.400000e-01,
402,-6.400000e-01,
403,6.400000e-01,
404,6.400000e-01,
405,-6.400000e-01,
406,-6.400000e-01,
407,7.200000e-01,
408,-6.400000e-01,
409,7.200000e-01,
410,7.200000e-01,
411,-7.200000e-01,
412,7.200000e-01,
413,-7.200000e-01,
414,7.200000e-01,
415,-7.200000e-01,
416,-7.200000e-01,
417,7.200000e-01,
418,-7.200000e-01,
419,8.000000e-01,
420,8.000000e-01,
421,-7.200000e-01,
422,8.800000e-01,
423,-8.000000e-01,
424,-8.000000e-01,
425,8.800000e-01,
426,-8.000000e-01,
427,8.800000e-01,
428,8.800000e-01,
429,-8.000000e-01,
430,-8.000000e-01,
431,9.600000e-01,
432,-8.000000e-01,
433,9.600000e-01,
434,9.600000e-01,
435,-8.800000e-01,
436,9.600000e-01,
437,-8.800000e-01,
438,-8.800000e-01,
439,1.040000e+00,
440,-8.800000e-01,
441,1.040000e+00,
442,1.040000e+00,
443,-9.600000e-01,
444,1.120000e+00,
445,-9.600000e-01,
446,1.120000e+00,
447,-9.600000e-01,
448,-9.600000e-01,
449,1.120000e+00,
450,1.200000e+00,
451,-1.040000e+00,
452,-1.040000e+00,
453,1.200000e+00,
454,-1.040000e+00,
455,1.280000e+00,
456,1.280000e+00,
457,-1.120000e+00,
458,-1.120000e+00,
459,1.280000e+00,
460,-1.120000e+00,
461,1.360000e+00,
462,1.360000e+00,
463,-1.200000e+00,
464,1.440000e+00,
465,-1.200000e+00,
466,-1.280000e+00,
467,1.440000e+00,
468,1.520000e+00,
469,-1.360000e+00,
470,-1.360000e+00,
471,1.600000e+00,
472,-1.440000e+00,
473,1.760000e+00,
474,-1.520000e+00,
475,1.760000e+00,
476,1.920000e+00,
477,-1.680000e+00,
478,2.000000e+00,
479,-1.840000e+00,
480,-2.000000e+00,
481,2.320000e+00,
482,-2.240000e+00,
483,2.560000e+00,
484,2.800000e+00,
485,-2.800000e+00,
486,3.200000e+00,
487,-3.280000e+00,
488,-3.920000e+00,
489,4.160000e+00,
490,-4.800000e+00,
491,5.120000e+00,
492,5.840000e+00,
493,-6.560000e+00,
494,5.840000e+00,
495,-6.560000e+00,
496,5.840000e+00,
497,-6.560000e+00,
498,5.840000e+00,
499,-6.480000e+00,
500,-6.480000e+00,
501,5.840000e+00,
502,-6.400000e+00,
503,5.840000e+00,
504,5.840000e+00,
505,-6.400000e+00,
506,5.840000e+00,
507,-6.320000e+00,
508,-6.320000e+00,
509,5.840000e+00,
510,-6.320000e+00,
511,5.840000e+00,
512,5.840000e+00,
513,-6.240000e+00,
514,5.840000e+00,
515,-6.240000e+00,
516,-6.160000e+00,
517,5.840000e+00,
518,-6.160000e+00,
519,5.920000e+00,
520,5.840000e+00,
521,-6.080000e+00,
522,5.840000e+00,
523,-6.000000e+00,
524,-6.000000e+00,
525,5.840000e+00,
526,-5.760000e+00,
527,5.680000e+00,
528,5.280000e+00,
529,-5.200000e+00,
530,4.800000e+00,
531,-4.640000e+00,
532,-4.000000e+00,
533,3.920000e+00,
534,-3.360000e+00,
535,3.280000e+00,
536,-2.560000e+00,
537,2.880000e+00,
538,2.400000e+00,
539,-2.080000e+00,
540,1.840000e+00,
541,-1.600000e+00,
542,-1.280000e+00,
543,1.440000e+00,
544,-9.600000e-01,
545,1.120000e+00,
546,8.800000e-01,
547,-7.200000e-01,
548,7.200000e-01,
549,-6.400000e-01,
550,-6.400000e-01,
551,6.400000e-01,
552,-6.400000e-01,
553,6.400000e-01,
554,5.600000e-01,
555,-5.600000e-01,
556,5.600000e-01,
557,-5.600000e-01,
558,-5.600000e-01,
559,5.600000e-01,
560,-5.600000e-01,
561,5.600000e-01,
562,5.600000e-01,
563,-5.600000e-01,
564,5.600000e-01,
565,-5.600000e-01,
566,6.400000e-01,
567,-6.400000e-01,
568,-6.400000e-01,
569,6.400000e-01,
570,6.400000e-01,
571,-6.400000e-01,
572,6.400000e-01,
573,-6.400000e-01,
574,-6.400000e-01,
575,6.400000e-01,
576,-6.400000e-01,
577,6.400000e-01,
578,6.400000e-01,
579,-6.400000e-01,
580,7.200000e-01,
581,-7.200000e-01,
582,-7.200000e-01,
583,7.200000e-01,
584,-7.200000e-01,
585,7.200000e-01,
586,7.200000e-01,
587,-7.200000e-01,
588,7.200000e-01,
589,-7.200000e-01,
590,-7.200000e-01,
591,8.000000e-01,
592,8.000000e-01,
593,-8.000000e-01,
594,8.000000e-01,
595,-8.000000e-01,
596,-8.000000e-01,
597,8.800000e-01,
598,-8.000000e-01,
599,8.800000e-01,
600,-8.000000e-01,
601,8.800000e-01,
602,9.600000e-01,
603,-8.800000e-01,
604,9.600000e-01,
605,-8.000000e-01,
606,9.600000e-01,
607,-8.800000e-01,
608,-8.800000e-01,
609,1.040000e+00,
610,-8.800000e-01,
611,1.040000e+00,
612,-8.800000e-01,
613,1.120000e+00,
614,-9.600000e-01,
615,1.120000e+00,
616,-9.600000e-01,
617,1.120000e+00,
618,-9.600000e-01,
619,1.120000e+00,
620,-9.600000e-01,
621,1.200000e+00,
622,1.200000e+00,
623,-1.040000e+00,
624,-1.040000e+00,
625,1.200000e+00,
626,1.280000e+00,
627,-1.120000e+00,
628,1.280000e+00,
629,-1.120000e+00,
630,-1.120000e+00,
631,1.360000e+00,
632,-1.120000e+00,
633,1.360000e+00,
634,-1.200000e+00,
635,1.440000e+00,
636,1.440000e+00,
637,-1.280000e+00,
638,-1.280000e+00,
639,1.520000e+00,
640,-1.360000e+00,
641,1.600000e+00,
642,-1.440000e+00,
643,1.680000e+00,
644,-1.520000e+00,
645,1.760000e+00,
646,-1.600000e+00,
647,1.920000e+00,
648,1.920000e+00,
649,-1.760000e+00,
650,2.240000e+00,
651,-2.000000e+00,
652,2.400000e+00,
653,-2.240000e+00,
654,-2.560000e+00,
655,2.800000e+00,
656,-2.960000e+00,
657,3.120000e+00,
658,3.680000e+00,
659,-3.840000e+00,
660,4.400000e+00,
661,-4.640000e+00,
662,-5.920000e+00,
663,5.840000e+00,
664,5.840000e+00,
665,-6.560000e+00,
666,-6.560000e+00,
667,5.840000e+00,
668,-6.560000e+00,
669,5.840000e+00,
670,5.840000e+00,
671,-6.480000e+00,
672,5.840000e+00,
673,-6.400000e+00,
674,-6.400000e+00,
675,5.840000e+00,
676,-6.320000e+00,
677,5.840000e+00,
678,5.840000e+00,
679,-6.320000e+00,
680,5.840000e+00,
681,-6.320000e+00,
682,-6.240000e+00,
683,5.840000e+00,
684,-6.240000e+00,
685,5.840000e+00,
686,5.920000e+00,
687,-6.160000e+00,
688,5.840000e+00,
689,-6.160000e+00,
690,-6.160000e+00,
691,5.840000e+00,
692,-6.080000e+00,
693,5.840000e+00,
694,5.840000e+00,
695,-5.920000e+00,
696,5.840000e+00,
697,-5.760000e+00,
698,-5.440000e+00,
699,5.280000e+00,
700,-4.880000e+00,
701,4.800000e+00,
702,-4.080000e+00,
703,4.240000e+00,
704,3.600000e+00,
705,-3.360000e+00,
706,3.040000e+00,
707,-2.800000e+00,
708,-2.240000e+00,
709,2.400000e+00,
710,-1.760000e+00,
711,1.920000e+00,
712,1.600000e+00,
713,-1.280000e+00,
714,1.280000e+00,
715,-1.040000e+00,
716,-8.000000e-01,
717,8.800000e-01,
718,-7.200000e-01,
719,7.200000e-01,
720,6.400000e-01,
721,-6.400000e-01,
722,6.400000e-01,
723,-6.400000e-01,
724,-5.600000e-01,
725,5.600000e-01,
726,-5.600000e-01,
727,5.600000e-01,
728,5.600000e-01,
729,-5.600000e-01,
730,5.600000e-01,
731,-5.600000e-01,
732,-5.600000e-01,
733,5.600000e-01,
734,-5.600000e-01,
735,6.400000e-01,
736,-5.600000e-01,
737,6.400000e-01,
738,-5.600000e-01,
739,6.400000e-01,
740,6.400000e-01,
741,-6.400000e-01,
742,-6.400000e-01,
743,6.400000e-01,
744,6.400000e-01,
745,-6.400000e-01,
746,6.400000e-01,
747,-6.400000e-01,
748,-6.400000e-01,
749,6.400000e-01,
750,-6.400000e-01,
751,7.200000e-01,
752,7.200000e-01,
753,-6.400000e-01,
754,7.200000e-01,
755,-6.400000e-01,
756,-7.200000e-01,
757,7.200000e-01,
758,-7.200000e-01,
759,7.200000e-01,
760,-7.200000e-01,
761,8.000000e-01,
762,8.000000e-01,
763,-7.200000e-01,
764,-7.200000e-01,
765,8.000000e-01,
766,8.000000e-01,
767,-8.000000e-01,
768,8.800000e-01,
769,-8.000000e-01,
770,8.800000e-01,
771,-8.000000e-01,
772,-8.000000e-01,
773,9.600000e-01,
774,9.600000e-01,
775,-8.800000e-01,
776,-8.000000e-01,
777,9.600000e-01,
778,9.600000e-01,
779,-8.800000e-01,
780,-8.800000e-01,
781,1.040000e+00,
782,-8.800000e-01,
783,1.040000e+00,
784,-8.800000e-01,
785,1.040000e+00,
786,1.040000e+00,
787,-9.600000e-01,
788,1.120000e+00,
789,-9.600000e-01,
790,-9.600000e-01,
791,1.120000e+00,
792,1.200000e+00,
793,-1.040000e+00,
794,1.200000e+00,
795,-1.040000e+00,
796,1.200000e+00,
797,-1.040000e+00,
798,-1.120000e+00,
799,1.280000e+00,
800,-1.120000e+00,
801,1.360000e+00,
802,1.360000e+00,
803,-1.120000e+00,
804,1.440000e+00,
805,-1.200000e+00,
806,-1.200000e+00,
807,1.440000e+00,
808,1.440000e+00,
809,-1.280000e+00,
810,1.520000e+00,
811,-1.280000e+00,
812,-1.360000e+00,
813,1.680000e+00,
814,-1.440000e+00,
815,1.680000e+00,
816,1.760000e+00,
817,-1.600000e+00,
818,1.840000e+00,
819,-1.680000e+00,
820,-1.840000e+00,
821,2.160000e+00,
822,-2.000000e+00,
823,2.320000e+00,
824,2.560000e+00,
825,-2.400000e+00,
826,2.880000e+00,
827,-2.800000e+00,
828,-3.280000e+00,
829,3.440000e+00,
830,-3.920000e+00,
831,4.160000e+00,
832,5.200000e+00,
833,-5.440000e+00,
834,5.840000e+00,
835,-6.560000e+00,
836,5.840000e+00,
837,-6.560000e+00,
838,5.840000e+00,
839,-6.560000e+00,
840,-6.480000e+00,
841,5.840000e+00,
842,-6.480000e+00,
843,5.840000e+00,
844,5.840000e+00,
845,-6.400000e+00,
846,5.840000e+00,
847,-6.400000e+00,
848,-6.320000e+00,
849,5.840000e+00,
850,-6.320000e+00,
851,5.840000e+00,
852,5.840000e+00,
853,-6.240000e+00,
854,5.840000e+00,
855,-6.240000e+00,
856,-6.240000e+00,
857,5.840000e+00,
858,-6.160000e+00,
859,5.840000e+00,
860,5.840000e+00,
861,-6.080000e+00,
862,5.840000e+00,
863,-6.080000e+00,
864,5.840000e+00,
865,-6.000000e+00,
866,-5.920000e+00,
867,5.840000e+00,
868,-5.600000e+00,
869,5.600000e+00,
870,5.200000e+00,
871,-5.120000e+00,
872,4.640000e+00,
873,-4.480000e+00,
874,-3.920000e+00,
875,3.760000e+00,
876,-3.280000e+00,
877,3.200000e+00,
878,2.720000e+00,
879,-2.480000e+00,
880,2.320000e+00,
881,-2.000000e+00,
882,-1.520000e+00,
883,1.760000e+00,
884,-1.200000e+00,
885,1.360000e+00,
886,1.040000e+00,
887,-8.800000e-01,
888,8.800000e-01,
889,-7.200000e-01,
890,-6.400000e-01,
891,7.200000e-01,
892,-6.400000e-01,
893,6.400000e-01,
894,5.600000e-01,
895,-5.600000e-01,
896,5.600000e-01,
897,-5.600000e-01,
898,-5.600000e-01,
899,5.600000e-01,
900,-5.600000e-01,
901,5.600000e-01,
902,5.600000e-01,
903,-5.600000e-01,
904,5.600000e-01,
905,-5.600000e-01,
906,-5.600000e-01,
907,6.400000e-01,
908,-5.600000e-01,
909,6.400000e-01,
910,6.400000e-01,
911,-6.400000e-01,
912,6.400000e-01,
913,-6.400000e-01,
914,-6.400000e-01,
915,6.400000e-01,
916,-6.400000e-01,
917,6.400000e-01,
918,6.400000e-01,
919,-6.400000e-01,
920,-6.400000e-01,
921,7.200000e-01,
922,-6.400000e-01,
923,7.200000e-01,
924,7.200000e-01,
925,-7.200000e-01,
926,7.200000e-01,
927,-7.200000e-01,
928,-7.200000e-01,
929,8.000000e-01,
930,-7.200000e-01,
931,8.000000e-01,
932,-7.200000e-01,
933,8.000000e-01,
934,-7.200000e-01,
935,8.000000e-01,
936,8.000000e-01,
937,-7.200000e-01,
938,-8.000000e-01,
939,8.800000e-01,
940,-8.000000e-01,
941,8.800000e-01,
942,-8.000000e-01,
943,8.800000e-01,
944,-8.000000e-01,
945,9.600000e-01,
946,9.600000e-01,
947,-8.000000e-01,
948,9.600000e-01,
949,-8.800000e-01,
950,-8.800000e-01,
951,1.040000e+00,
952,1.040000e+00,
953,-8.800000e-01,
954,1.040000e+00,
955,-8.800000e-01,
956,-8.800000e-01,
957,1.040000e+00,
958,-9.600000e-01,
959,1.120000e+00,
960,1.120000e+00,
961,-9.600000e-01,
962,-9.600000e-01,
963,1.200000e+00,
964,1.200000e+00,
965,-1.040000e+00,
966,-1.040000e+00,
967,1.200000e+00,
968,1.200000e+00,
969,-1.040000e+00,
970,-1.120000e+00,
971,1.360000e+00,
972,-1.120000e+00,
973,1.360000e+00,
974,1.360000e+00,
975,-1.200000e+00,
976,1.360000e+00,
977,-1.200000e+00,
978,1.440000e+00,
979,-1.200000e+00,
980,-1.280000e+00,
981,1.520000e+00,
982,1.600000e+00,
983,-1.360000e+00,
984,-1.440000e+00,
985,1.680000e+00,
986,-1.520000e+00,
987,1.760000e+00,
988,-1.600000e+00,
989,1.840000e+00,
990,2.000000e+00,
991,-1.760000e+00,
992,2.160000e+00,
993,-1.920000e+00,
994,-2.160000e+00,
995,2.480000e+00,
996,-2.480000e+00,
997,2.720000e+00,
998,3.040000e+00,
999,-3.040000e+00,
1000,3.520000e+00,
1001,-3.600000e+00,
1002,-4.400000e+00,
1003,4.480000e+00,
1004,-5.520000e+00,
1005,5.840000e+00,
1006,5.840000e+00,
1007,-6.560000e+00,
1008,-6.560000e+00,
1009,5.840000e+00,
1010,5.840000e+00,
1011,-6.480000e+00,
1012,5.840000e+00,
1013,-6.480000e+00,
1014,-6.480000e+00,
1015,5.840000e+00,
1016,-6.400000e+00,
1017,5.840000e+00,
1018,5.840000e+00,
1019,-6.320000e+00,
1020,5.840000e+00,
1021,-6.320000e+00,
1022,-6.320000e+00,
1023,5.840000e+00,
1024,-6.240000e+00,
1025,5.840000e+00,
1026,5.840000e+00,
1027,-6.160000e+00,
1028,5.840000e+00,
1029,-6.160000e+00,
1030,5.840000e+00,
1031,-6.160000e+00,
1032,-6.080000e+00,
1033,5.840000e+00,
1034,5.920000e+00,
1035,-6.080000e+00,
1036,5.840000e+00,
1037,-6.000000e+00,
1038,5.840000e+00,
1039,-5.840000e+00,
1040,-5.520000e+00,
1041,5.440000e+00,
1042,-5.040000e+00,
1043,4.960000e+00,
1044,4.320000e+00,
1045,-4.160000e+00,
1046,3.760000e+00,
1047,-3.520000e+00,
1048,-2.960000e+00,
1049,2.960000e+00,
1050,-2.400000e+00,
1051,2.480000e+00,
1052,2.080000e+00,
1053,-1.760000e+00,
1054,1.680000e+00,
1055,-1.360000e+00,
1056,-1.040000e+00,
1057,1.200000e+00,
1058,-8.800000e-01,
1059,9.600000e-01,
1060,7.200000e-01,
1061,-7.200000e-01,
1062,7.200000e-01,
1063,-6.400000e-01,
1064,-6.400000e-01,
1065,6.400000e-01,
1066,-5.600000e-01,
1067,5.600000e-01,
1068,6.400000e-01,
1069,-5.600000e-01,
1070,5.600000e-01,
1071,-5.600000e-01,
1072,-5.600000e-01,
1073,5.600000e-01,
1074,-5.600000e-01,
1075,5.600000e-01,
1076,5.600000e-01,
