Esp11/Data/Accensione contatore.csv

X,CH1,CH2,Start,Increment,
Sequence,Volt,Volt,-8.380000e-02,2.780000e-04,
0,1.120000e-01,0.000000e+00,
1,0.000000e+00,1.120000e-01,
2,1.120000e-01,0.000000e+00,
3,0.000000e+00,1.120000e-01,
4,1.120000e-01,0.000000e+00,
5,0.000000e+00,1.120000e-01,
6,1.120000e-01,0.000000e+00,
7,0.000000e+00,1.120000e-01,
8,1.120000e-01,0.000000e+00,
9,0.000000e+00,1.120000e-01,
10,1.120000e-01,1.120000e-01,
11,0.000000e+00,-5.600000e-02,
12,1.120000e-01,0.000000e+00,
13,0.000000e+00,1.120000e-01,
14,1.120000e-01,-5.600000e-02,
15,0.000000e+00,1.120000e-01,
16,1.120000e-01,0.000000e+00,
17,0.000000e+00,1.120000e-01,
18,1.120000e-01,0.000000e+00,
19,0.000000e+00,1.120000e-01,
20,1.120000e-01,0.000000e+00,
21,0.000000e+00,1.120000e-01,
22,1.120000e-01,1.120000e-01,
23,0.000000e+00,-5.600000e-02,
24,1.120000e-01,0.000000e+00,
25,0.000000e+00,1.120000e-01,
26,1.120000e-01,0.000000e+00,
27,0.000000e+00,1.120000e-01,
28,1.120000e-01,0.000000e+00,
29,0.000000e+00,1.120000e-01,
30,1.120000e-01,1.120000e-01,
31,0.000000e+00,-5.600000e-02,
32,1.120000e-01,0.000000e+00,
33,0.000000e+00,1.120000e-01,
34,1.120000e-01,1.120000e-01,
35,0.000000e+00,-5.600000e-02,
36,1.120000e-01,1.120000e-01,
37,0.000000e+00,-5.600000e-02,
38,1.120000e-01,0.000000e+00,
39,0.000000e+00,1.120000e-01,
40,0.000000e+00,1.120000e-01,
41,1.680000e-01,-5.600000e-02,
42,1.120000e-01,0.000000e+00,
43,0.000000e+00,1.120000e-01,
44,1.120000e-01,-5.600000e-02,
45,0.000000e+00,1.120000e-01,
46,1.120000e-01,1.120000e-01,
47,0.000000e+00,-5.600000e-02,
48,1.120000e-01,1.120000e-01,
49,0.000000e+00,-5.600000e-02,
50,1.120000e-01,1.120000e-01,
51,0.000000e+00,-5.600000e-02,
52,1.120000e-01,1.120000e-01,
53,0.000000e+00,-5.600000e-02,
54,1.120000e-01,1.120000e-01,
55,0.000000e+00,-5.600000e-02,
56,1.120000e-01,1.120000e-01,
57,0.000000e+00,-5.600000e-02,
58,1.120000e-01,1.120000e-01,
59,0.000000e+00,-5.600000e-02,
60,0.000000e+00,1.120000e-01,
61,1.680000e-01,-5.600000e-02,
62,1.120000e-01,1.120000e-01,
63,0.000000e+00,-5.600000e-02,
64,1.120000e-01,0.000000e+00,
65,0.000000e+00,1.120000e-01,
66,1.120000e-01,1.120000e-01,
67,0.000000e+00,-5.600000e-02,
68,1.120000e-01,1.120000e-01,
69,0.000000e+00,-5.600000e-02,
70,1.120000e-01,1.120000e-01,
71,0.000000e+00,-5.600000e-02,
72,0.000000e+00,0.000000e+00,
73,1.680000e-01,1.120000e-01,
74,1.120000e-01,1.120000e-01,
75,0.000000e+00,-5.600000e-02,
76,1.120000e-01,1.120000e-01,
77,0.000000e+00,-5.600000e-02,
78,1.120000e-01,1.120000e-01,
79,0.000000e+00,-5.600000e-02,
80,1.120000e-01,1.120000e-01,
81,0.000000e+00,-5.600000e-02,
82,1.120000e-01,1.120000e-01,
83,0.000000e+00,-5.600000e-02,
84,1.120000e-01,-5.600000e-02,
85,0.000000e+00,1.120000e-01,
86,1.120000e-01,1.120000e-01,
87,0.000000e+00,-5.600000e-02,
88,1.120000e-01,0.000000e+00,
89,0.000000e+00,1.120000e-01,
90,1.120000e-01,1.120000e-01,
91,0.000000e+00,-5.600000e-02,
92,1.120000e-01,-5.600000e-02,
93,0.000000e+00,1.120000e-01,
94,1.120000e-01,1.120000e-01,
95,0.000000e+00,-5.600000e-02,
96,1.120000e-01,1.120000e-01,
97,0.000000e+00,-5.600000e-02,
98,0.000000e+00,0.000000e+00,
99,2.800000e-01,1.120000e-01,
100,2.240000e-01,1.120000e-01,
101,4.480000e-01,-5.600000e-02,
102,3.360000e-01,0.000000e+00,
103,5.600000e-01,1.120000e-01,
104,4.480000e-01,0.000000e+00,
105,6.160000e-01,1.120000e-01,
106,5.600000e-01,1.120000e-01,
107,7.840000e-01,-5.600000e-02,
108,6.720000e-01,0.000000e+00,
109,8.960000e-01,1.120000e-01,
110,7.840000e-01,0.000000e+00,
111,1.008000e+00,1.120000e-01,
112,8.960000e-01,1.120000e-01,
113,1.064000e+00,0.000000e+00,
114,1.008000e+00,0.000000e+00,
115,1.232000e+00,1.680000e-01,
116,1.120000e+00,0.000000e+00,
117,1.344000e+00,1.680000e-01,
118,1.232000e+00,0.000000e+00,
119,1.456000e+00,1.680000e-01,
120,1.344000e+00,5.600000e-02,
121,1.568000e+00,1.680000e-01,
122,1.456000e+00,1.680000e-01,
123,1.680000e+00,5.600000e-02,
124,1.568000e+00,5.600000e-02,
125,1.792000e+00,2.240000e-01,
126,1.680000e+00,1.120000e-01,
127,1.904000e+00,2.240000e-01,
128,1.792000e+00,2.240000e-01,
129,2.016000e+00,1.120000e-01,
130,1.904000e+00,2.240000e-01,
131,2.128000e+00,1.120000e-01,
132,2.016000e+00,1.680000e-01,
133,2.240000e+00,2.800000e-01,
134,2.128000e+00,2.800000e-01,
135,2.352000e+00,1.680000e-01,
136,2.240000e+00,1.680000e-01,
137,2.464000e+00,3.360000e-01,
138,2.352000e+00,2.240000e-01,
139,2.576000e+00,3.360000e-01,
140,2.464000e+00,2.240000e-01,
141,2.688000e+00,3.920000e-01,
142,2.576000e+00,2.800000e-01,
143,2.800000e+00,3.920000e-01,
144,2.688000e+00,3.920000e-01,
145,2.856000e+00,2.800000e-01,
146,2.800000e+00,3.360000e-01,
147,2.968000e+00,4.480000e-01,
148,2.856000e+00,3.360000e-01,
149,3.080000e+00,4.480000e-01,
150,2.968000e+00,3.360000e-01,
151,3.192000e+00,5.040000e-01,
152,3.080000e+00,3.920000e-01,
153,3.304000e+00,5.040000e-01,
154,3.192000e+00,3.920000e-01,
155,3.360000e+00,5.600000e-01,
156,3.248000e+00,4.480000e-01,
157,3.472000e+00,5.600000e-01,
158,3.360000e+00,4.480000e-01,
159,3.584000e+00,6.160000e-01,
160,3.472000e+00,5.040000e-01,
161,3.640000e+00,6.160000e-01,
162,3.584000e+00,5.600000e-01,
163,3.752000e+00,6.720000e-01,
164,3.640000e+00,5.600000e-01,
165,3.864000e+00,6.720000e-01,
166,3.752000e+00,6.160000e-01,
167,3.920000e+00,7.280000e-01,
168,3.808000e+00,6.160000e-01,
169,4.032000e+00,7.840000e-01,
170,3.920000e+00,6.720000e-01,
171,4.144000e+00,7.840000e-01,
172,4.032000e+00,6.720000e-01,
173,4.200000e+00,8.400000e-01,
174,4.088000e+00,7.280000e-01,
175,4.312000e+00,8.960000e-01,
176,4.200000e+00,7.840000e-01,
177,4.368000e+00,8.960000e-01,
178,4.256000e+00,7.840000e-01,
179,4.480000e+00,9.520000e-01,
180,4.368000e+00,8.400000e-01,
181,4.536000e+00,9.520000e-01,
182,4.480000e+00,8.400000e-01,
183,4.648000e+00,1.008000e+00,
184,4.536000e+00,8.960000e-01,
185,4.704000e+00,1.008000e+00,
186,4.648000e+00,9.520000e-01,
187,4.816000e+00,1.064000e+00,
188,4.704000e+00,9.520000e-01,
189,4.872000e+00,1.120000e+00,
190,4.760000e+00,1.008000e+00,
191,4.984000e+00,1.120000e+00,
192,4.872000e+00,1.008000e+00,
193,5.040000e+00,1.176000e+00,
194,4.928000e+00,1.064000e+00,
195,5.096000e+00,1.176000e+00,
196,5.040000e+00,1.120000e+00,
197,5.152000e+00,1.232000e+00,
198,5.096000e+00,1.120000e+00,
199,4.984000e+00,1.288000e+00,
200,5.096000e+00,1.176000e+00,
201,4.984000e+00,1.344000e+00,
202,5.096000e+00,1.232000e+00,
203,4.984000e+00,1.344000e+00,
204,4.984000e+00,1.232000e+00,
205,5.096000e+00,1.400000e+00,
206,4.984000e+00,1.288000e+00,
207,5.096000e+00,1.400000e+00,
208,4.984000e+00,1.288000e+00,
209,5.096000e+00,1.400000e+00,
210,4.984000e+00,1.288000e+00,
211,5.096000e+00,1.400000e+00,
212,4.984000e+00,1.288000e+00,
213,5.096000e+00,1.456000e+00,
214,4.984000e+00,1.456000e+00,
215,5.096000e+00,1.288000e+00,
216,4.984000e+00,1.344000e+00,
217,5.096000e+00,1.456000e+00,
218,4.984000e+00,1.344000e+00,
219,5.096000e+00,1.512000e+00,
220,4.984000e+00,1.400000e+00,
221,5.096000e+00,1.512000e+00,
222,4.984000e+00,1.512000e+00,
223,5.096000e+00,1.400000e+00,
224,4.984000e+00,1.456000e+00,
225,5.096000e+00,1.568000e+00,
226,4.984000e+00,1.456000e+00,
227,5.096000e+00,1.568000e+00,
228,4.984000e+00,1.456000e+00,
229,5.096000e+00,1.568000e+00,
230,4.984000e+00,1.568000e+00,
231,5.096000e+00,1.456000e+00,
232,4.984000e+00,1.512000e+00,
233,5.096000e+00,1.624000e+00,
234,4.984000e+00,1.512000e+00,
235,5.096000e+00,1.624000e+00,
236,4.984000e+00,1.568000e+00,
237,5.096000e+00,1.624000e+00,
238,4.984000e+00,1.568000e+00,
239,5.096000e+00,1.680000e+00,
240,4.984000e+00,1.680000e+00,
241,5.096000e+00,1.568000e+00,
242,4.984000e+00,1.680000e+00,
243,5.096000e+00,1.568000e+00,
244,4.984000e+00,1.624000e+00,
245,5.096000e+00,1.736000e+00,
246,4.984000e+00,1.624000e+00,
247,5.096000e+00,1.736000e+00,
248,4.984000e+00,1.736000e+00,
249,5.096000e+00,1.624000e+00,
250,4.984000e+00,1.680000e+00,
251,5.096000e+00,1.792000e+00,
252,4.984000e+00,1.680000e+00,
253,5.096000e+00,1.792000e+00,
254,4.984000e+00,1.680000e+00,
255,5.096000e+00,1.792000e+00,
256,4.984000e+00,1.736000e+00,
257,5.096000e+00,1.848000e+00,
258,4.984000e+00,1.848000e+00,
259,5.096000e+00,1.736000e+00,
260,4.984000e+00,1.736000e+00,
261,5.096000e+00,1.848000e+00,
262,4.984000e+00,1.736000e+00,
263,5.096000e+00,1.904000e+00,
264,4.984000e+00,1.736000e+00,
265,5.096000e+00,1.904000e+00,
266,4.984000e+00,1.792000e+00,
267,5.096000e+00,1.904000e+00,
268,4.984000e+00,1.904000e+00,
269,5.096000e+00,1.792000e+00,
270,4.984000e+00,1.792000e+00,
271,5.096000e+00,1.960000e+00,
272,4.984000e+00,1.848000e+00,
273,5.096000e+00,1.960000e+00,
274,4.984000e+00,1.848000e+00,
275,5.096000e+00,1.960000e+00,
276,4.984000e+00,1.960000e+00,
277,5.096000e+00,1.904000e+00,
278,5.096000e+00,1.904000e+00,
279,4.984000e+00,2.016000e+00,
280,4.984000e+00,1.904000e+00,
281,5.096000e+00,2.016000e+00,
282,4.984000e+00,1.904000e+00,
283,5.096000e+00,2.072000e+00,
284,5.096000e+00,1.960000e+00,
285,4.984000e+00,2.072000e+00,
286,4.984000e+00,1.960000e+00,
287,5.096000e+00,2.072000e+00,
288,4.984000e+00,2.072000e+00,
289,5.096000e+00,1.960000e+00,
290,4.984000e+00,1.960000e+00,
291,5.096000e+00,2.128000e+00,
292,5.096000e+00,2.016000e+00,
293,4.984000e+00,2.128000e+00,
294,5.096000e+00,2.128000e+00,
295,4.984000e+00,2.016000e+00,
296,4.984000e+00,2.016000e+00,
297,5.096000e+00,2.184000e+00,
298,4.984000e+00,2.184000e+00,
299,5.096000e+00,2.016000e+00,
300,4.984000e+00,2.072000e+00,
301,5.096000e+00,2.184000e+00,
302,4.984000e+00,2.184000e+00,
303,5.096000e+00,2.072000e+00,
304,4.984000e+00,2.240000e+00,
305,5.096000e+00,2.072000e+00,
306,5.096000e+00,2.128000e+00,
307,4.984000e+00,2.240000e+00,
308,4.984000e+00,2.128000e+00,
309,5.096000e+00,2.240000e+00,
310,4.984000e+00,2.240000e+00,
311,5.096000e+00,2.128000e+00,
312,4.984000e+00,2.184000e+00,
313,5.096000e+00,2.296000e+00,
314,4.984000e+00,2.296000e+00,
315,5.096000e+00,2.184000e+00,
316,4.984000e+00,2.184000e+00,
317,5.096000e+00,2.296000e+00,
318,4.984000e+00,2.184000e+00,
319,5.096000e+00,2.352000e+00,
320,4.984000e+00,2.240000e+00,
321,5.096000e+00,2.352000e+00,
322,4.984000e+00,2.352000e+00,
323,5.096000e+00,2.184000e+00,
324,4.984000e+00,2.240000e+00,
325,5.096000e+00,2.352000e+00,
326,4.984000e+00,2.352000e+00,
327,5.096000e+00,2.240000e+00,
328,5.096000e+00,2.240000e+00,
329,4.984000e+00,2.408000e+00,
330,4.984000e+00,2.296000e+00,
331,5.096000e+00,2.408000e+00,
332,4.984000e+00,2.296000e+00,
333,5.096000e+00,2.408000e+00,
334,4.984000e+00,2.408000e+00,
335,5.096000e+00,2.296000e+00,
336,5.096000e+00,2.296000e+00,
337,4.984000e+00,2.464000e+00,
338,4.984000e+00,2.352000e+00,
339,5.096000e+00,2.464000e+00,
340,4.984000e+00,2.352000e+00,
341,5.096000e+00,2.464000e+00,
342,4.984000e+00,2.464000e+00,
343,5.096000e+00,2.352000e+00,
344,4.984000e+00,2.408000e+00,
345,5.096000e+00,2.464000e+00,
346,4.984000e+00,2.408000e+00,
347,5.096000e+00,2.520000e+00,
348,4.984000e+00,2.408000e+00,
349,5.096000e+00,2.520000e+00,
350,4.984000e+00,2.520000e+00,
351,5.096000e+00,2.408000e+00,
352,4.984000e+00,2.408000e+00,
353,5.096000e+00,2.576000e+00,
354,4.984000e+00,2.464000e+00,
355,5.096000e+00,2.576000e+00,
356,4.984000e+00,2.464000e+00,
357,5.096000e+00,2.576000e+00,
358,4.984000e+00,2.576000e+00,
359,5.096000e+00,2.464000e+00,
360,4.984000e+00,2.464000e+00,
361,5.096000e+00,2.632000e+00,
362,4.984000e+00,2.520000e+00,
363,5.096000e+00,2.632000e+00,
364,4.984000e+00,2.520000e+00,
365,5.096000e+00,2.632000e+00,
366,4.984000e+00,2.632000e+00,
367,5.096000e+00,2.520000e+00,
368,5.096000e+00,2.632000e+00,
369,4.984000e+00,2.520000e+00,
370,5.096000e+00,2.576000e+00,
371,4.984000e+00,2.688000e+00,
372,4.984000e+00,2.576000e+00,
373,5.096000e+00,2.688000e+00,
374,5.096000e+00,2.576000e+00,
375,4.984000e+00,2.688000e+00,
376,4.984000e+00,2.688000e+00,
377,5.096000e+00,2.576000e+00,
378,4.984000e+00,2.576000e+00,
379,5.096000e+00,2.744000e+00,
380,4.984000e+00,2.576000e+00,
381,5.096000e+00,2.744000e+00,
382,4.984000e+00,2.632000e+00,
383,5.096000e+00,2.744000e+00,
384,4.984000e+00,2.744000e+00,
385,5.096000e+00,2.632000e+00,
386,4.984000e+00,2.744000e+00,
387,5.096000e+00,2.632000e+00,
388,4.984000e+00,2.632000e+00,
389,5.096000e+00,2.800000e+00,
390,4.984000e+00,2.688000e+00,
391,5.096000e+00,2.800000e+00,
392,4.984000e+00,2.688000e+00,
393,5.096000e+00,2.800000e+00,
394,4.984000e+00,2.800000e+00,
395,5.096000e+00,2.688000e+00,
396,4.984000e+00,2.800000e+00,
397,5.096000e+00,2.688000e+00,
398,4.984000e+00,2.688000e+00,
399,5.096000e+00,2.856000e+00,
400,4.984000e+00,2.856000e+00,
401,5.096000e+00,2.744000e+00,
402,4.984000e+00,2.744000e+00,
403,5.096000e+00,2.856000e+00,
404,4.984000e+00,2.856000e+00,
405,5.096000e+00,2.744000e+00,
406,4.984000e+00,2.856000e+00,
407,5.096000e+00,2.744000e+00,
408,4.984000e+00,2.800000e+00,
409,5.096000e+00,2.912000e+00,
410,4.984000e+00,2.800000e+00,
411,5.096000e+00,2.912000e+00,
412,4.984000e+00,2.800000e+00,
413,5.096000e+00,2.912000e+00,
414,4.984000e+00,2.912000e+00,
415,5.096000e+00,2.800000e+00,
416,4.984000e+00,2.800000e+00,
417,5.096000e+00,2.968000e+00,
418,4.984000e+00,2.856000e+00,
419,5.096000e+00,2.968000e+00,
420,4.984000e+00,2.856000e+00,
421,5.096000e+00,2.968000e+00,
422,4.984000e+00,2.856000e+00,
423,5.096000e+00,2.968000e+00,
424,4.984000e+00,2.968000e+00,
425,5.096000e+00,2.856000e+00,
426,4.984000e+00,2.968000e+00,
427,5.096000e+00,2.856000e+00,
428,4.984000e+00,2.912000e+00,
429,5.096000e+00,3.024000e+00,
430,4.984000e+00,2.912000e+00,
431,5.096000e+00,3.024000e+00,
432,5.096000e+00,2.912000e+00,
433,4.984000e+00,3.024000e+00,
434,5.096000e+00,2.912000e+00,
435,4.984000e+00,3.024000e+00,
436,4.984000e+00,3.024000e+00,
437,5.096000e+00,2.912000e+00,
438,4.984000e+00,3.024000e+00,
439,5.096000e+00,2.968000e+00,
440,4.984000e+00,2.968000e+00,
441,5.096000e+00,3.080000e+00,
442,4.984000e+00,2.968000e+00,
443,5.096000e+00,3.080000e+00,
444,4.984000e+00,2.968000e+00,
445,5.096000e+00,3.080000e+00,
446,4.984000e+00,3.080000e+00,
447,5.096000e+00,2.968000e+00,
448,4.984000e+00,3.080000e+00,
449,5.096000e+00,2.968000e+00,
450,4.984000e+00,3.080000e+00,
451,5.096000e+00,2.968000e+00,
452,4.984000e+00,3.024000e+00,
453,5.096000e+00,3.136000e+00,
454,4.984000e+00,3.024000e+00,
455,5.096000e+00,3.136000e+00,
456,4.984000e+00,3.024000e+00,
457,5.096000e+00,3.136000e+00,
458,4.984000e+00,3.024000e+00,
459,5.096000e+00,3.136000e+00,
460,4.984000e+00,3.136000e+00,
461,5.096000e+00,3.024000e+00,
462,4.984000e+00,3.136000e+00,
463,5.096000e+00,3.024000e+00,
464,4.984000e+00,3.024000e+00,
465,5.096000e+00,3.192000e+00,
466,4.984000e+00,3.080000e+00,
467,5.096000e+00,3.192000e+00,
468,4.984000e+00,3.080000e+00,
469,5.096000e+00,3.192000e+00,
470,4.984000e+00,3.080000e+00,
471,5.096000e+00,3.192000e+00,
472,4.984000e+00,3.192000e+00,
473,5.096000e+00,3.080000e+00,
474,4.984000e+00,3.192000e+00,
475,5.096000e+00,3.080000e+00,
476,5.096000e+00,3.136000e+00,
477,4.984000e+00,3.248000e+00,
478,4.984000e+00,3.136000e+00,
479,5.096000e+00,3.248000e+00,
480,4.984000e+00,3.136000e+00,
481,5.096000e+00,3.248000e+00,
482,4.984000e+00,3.136000e+00,
483,5.096000e+00,3.248000e+00,
484,4.984000e+00,3.248000e+00,
485,5.096000e+00,3.136000e+00,
486,4.984000e+00,3.248000e+00,
487,5.096000e+00,3.136000e+00,
488,4.984000e+00,3.192000e+00,
489,5.096000e+00,3.304000e+00,
490,4.984000e+00,3.304000e+00,
491,5.096000e+00,3.136000e+00,
492,4.984000e+00,3.192000e+00,
493,5.096000e+00,3.304000e+00,
494,4.984000e+00,3.192000e+00,
495,5.096000e+00,3.304000e+00,
496,4.984000e+00,3.304000e+00,
497,5.096000e+00,3.192000e+00,
498,4.984000e+00,3.304000e+00,
499,5.096000e+00,3.192000e+00,
500,4.984000e+00,3.304000e+00,
501,5.096000e+00,3.192000e+00,
502,5.096000e+00,3.304000e+00,
503,4.928000e+00,3.248000e+00,
504,4.984000e+00,3.248000e+00,
505,5.096000e+00,3.360000e+00,
506,4.984000e+00,3.248000e+00,
507,5.096000e+00,3.360000e+00,
508,4.984000e+00,3.248000e+00,
509,5.096000e+00,3.360000e+00,
510,4.984000e+00,3.360000e+00,
511,5.096000e+00,3.248000e+00,
512,4.984000e+00,3.360000e+00,
513,5.096000e+00,3.248000e+00,
514,4.984000e+00,3.416000e+00,
515,5.096000e+00,3.248000e+00,
516,4.984000e+00,3.304000e+00,
517,5.096000e+00,3.416000e+00,
518,4.984000e+00,3.304000e+00,
519,5.096000e+00,3.416000e+00,
520,4.984000e+00,3.304000e+00,
521,5.096000e+00,3.416000e+00,
522,4.984000e+00,3.304000e+00,
523,5.096000e+00,3.416000e+00,
524,4.984000e+00,3.416000e+00,
525,5.096000e+00,3.304000e+00,
526,4.984000e+00,3.416000e+00,
527,5.096000e+00,3.304000e+00,
528,4.984000e+00,3.304000e+00,
529,5.096000e+00,3.472000e+00,
530,4.984000e+00,3.472000e+00,
531,5.096000e+00,3.304000e+00,
532,4.984000e+00,3.360000e+00,
533,5.096000e+00,3.472000e+00,
534,4.984000e+00,3.472000e+00,
535,5.096000e+00,3.360000e+00,
536,4.984000e+00,3.360000e+00,
537,5.096000e+00,3.472000e+00,
538,4.984000e+00,3.472000e+00,
539,5.096000e+00,3.360000e+00,
540,4.984000e+00,3.472000e+00,
541,5.096000e+00,3.360000e+00,
542,5.096000e+00,3.360000e+00,
543,4.984000e+00,3.528000e+00,
544,4.984000e+00,3.528000e+00,
545,5.096000e+00,3.360000e+00,
546,4.984000e+00,3.528000e+00,
547,5.096000e+00,3.416000e+00,
548,5.096000e+00,3.416000e+00,
549,4.984000e+00,3.528000e+00,
550,4.984000e+00,3.528000e+00,
551,5.096000e+00,3.416000e+00,
552,4.984000e+00,3.528000e+00,
553,5.096000e+00,3.416000e+00,
554,4.984000e+00,3.528000e+00,
555,5.096000e+00,3.416000e+00,
556,4.984000e+00,3.416000e+00,
557,5.096000e+00,3.584000e+00,
558,4.984000e+00,3.472000e+00,
559,5.096000e+00,3.584000e+00,
560,4.984000e+00,3.472000e+00,
561,5.096000e+00,3.584000e+00,
562,4.984000e+00,3.472000e+00,
563,5.096000e+00,3.584000e+00,
564,4.984000e+00,3.472000e+00,
565,5.096000e+00,3.584000e+00,
566,4.984000e+00,3.584000e+00,
567,5.096000e+00,3.472000e+00,
568,4.984000e+00,3.584000e+00,
569,5.096000e+00,3.472000e+00,
570,4.984000e+00,3.472000e+00,
571,5.096000e+00,3.640000e+00,
572,4.984000e+00,3.472000e+00,
573,5.096000e+00,3.640000e+00,
574,4.984000e+00,3.528000e+00,
575,5.096000e+00,3.640000e+00,
576,4.984000e+00,3.528000e+00,
577,5.096000e+00,3.640000e+00,
578,4.984000e+00,3.528000e+00,
579,5.096000e+00,3.640000e+00,
580,4.984000e+00,3.640000e+00,
581,5.096000e+00,3.528000e+00,
582,4.984000e+00,3.528000e+00,
583,5.096000e+00,3.640000e+00,
584,4.984000e+00,3.640000e+00,
585,5.096000e+00,3.528000e+00,
586,4.984000e+00,3.640000e+00,
587,5.096000e+00,3.528000e+00,
588,4.984000e+00,3.584000e+00,
589,5.096000e+00,3.696000e+00,
590,4.984000e+00,3.696000e+00,
591,5.096000e+00,3.528000e+00,
592,4.984000e+00,3.584000e+00,
593,5.096000e+00,3.696000e+00,
594,4.984000e+00,3.584000e+00,
595,5.096000e+00,3.696000e+00,
596,4.984000e+00,3.696000e+00,
597,5.096000e+00,3.584000e+00,
598,4.984000e+00,3.696000e+00,
599,5.096000e+00,3.584000e+00,
600,4.984000e+00,3.696000e+00,
601,5.096000e+00,3.584000e+00,
602,4.984000e+00,3.640000e+00,
603,5.096000e+00,3.696000e+00,
604,5.096000e+00,3.584000e+00,
605,4.984000e+00,3.752000e+00,
606,4.984000e+00,3.640000e+00,
607,5.096000e+00,3.752000e+00,
608,4.984000e+00,3.640000e+00,
609,5.096000e+00,3.752000e+00,
610,4.984000e+00,3.640000e+00,
611,5.096000e+00,3.752000e+00,
612,4.984000e+00,3.640000e+00,
613,5.096000e+00,3.752000e+00,
614,4.984000e+00,3.640000e+00,
615,5.096000e+00,3.752000e+00,
616,4.984000e+00,3.752000e+00,
617,5.096000e+00,3.640000e+00,
618,4.984000e+00,3.752000e+00,
619,5.096000e+00,3.640000e+00,
620,4.984000e+00,3.752000e+00,
621,5.096000e+00,3.640000e+00,
622,4.984000e+00,3.752000e+00,
623,5.096000e+00,3.640000e+00,
624,4.984000e+00,3.752000e+00,
625,5.096000e+00,3.696000e+00,
626,4.984000e+00,3.696000e+00,
627,5.096000e+00,3.808000e+00,
628,4.984000e+00,3.696000e+00,
629,5.096000e+00,3.808000e+00,
630,4.984000e+00,3.696000e+00,
631,5.096000e+00,3.808000e+00,
632,4.984000e+00,3.696000e+00,
633,5.096000e+00,3.808000e+00,
634,4.984000e+00,3.696000e+00,
635,5.096000e+00,3.808000e+00,
636,4.984000e+00,3.808000e+00,
637,5.096000e+00,3.696000e+00,
638,4.984000e+00,3.808000e+00,
639,5.096000e+00,3.696000e+00,
640,4.984000e+00,3.808000e+00,
641,5.096000e+00,3.752000e+00,
642,4.984000e+00,3.808000e+00,
643,5.096000e+00,3.752000e+00,
644,4.984000e+00,3.752000e+00,
